solid 
facet normal 0 0 0
	outer loop
		vertex 1.5 -27.0 0.0
		vertex 1.5 27.0 0.0
		vertex 7.5 -27.0 0.0
	endloop
endfacet
facet normal 0 0 0
	outer loop
		vertex 1.5 27.0 0.0
		vertex 7.5 27.0 0.0
		vertex 7.5 -27.0 0.0
	endloop
endfacet
facet normal 0 0 0
	outer loop
		vertex 1.5 -27.0 27.0
		vertex 7.5 -27.0 27.0
		vertex 1.5 27.0 27.0
	endloop
endfacet
facet normal 0 0 0
	outer loop
		vertex 7.5 -27.0 27.0
		vertex 7.5 27.0 27.0
		vertex 1.5 27.0 27.0
	endloop
endfacet
facet normal 0 0 0
	outer loop
		vertex 1.5 -27.0 0.0
		vertex 7.5 -27.0 0.0
		vertex 1.5 -27.0 27.0
	endloop
endfacet
facet normal 0 0 0
	outer loop
		vertex 7.5 -27.0 0.0
		vertex 7.5 -27.0 27.0
		vertex 1.5 -27.0 27.0
	endloop
endfacet
facet normal 0 0 0
	outer loop
		vertex 1.5 27.0 0.0
		vertex 1.5 27.0 27.0
		vertex 7.5 27.0 0.0
	endloop
endfacet
facet normal 0 0 0
	outer loop
		vertex 7.5 27.0 0.0
		vertex 1.5 27.0 27.0
		vertex 7.5 27.0 27.0
	endloop
endfacet
facet normal 0 0 0
	outer loop
		vertex 1.5 -27.0 0.0
		vertex 1.5 -27.0 27.0
		vertex 1.5 27.0 0.0
	endloop
endfacet
facet normal 0 0 0
	outer loop
		vertex 1.5 27.0 0.0
		vertex 1.5 -27.0 27.0
		vertex 1.5 27.0 27.0
	endloop
endfacet
facet normal 0 0 0
	outer loop
		vertex 7.5 27.0 0.0
		vertex 7.5 27.0 27.0
		vertex 7.5 -27.0 27.0
	endloop
endfacet
facet normal 0 0 0
	outer loop
		vertex 7.5 27.0 0.0
		vertex 7.5 -27.0 27.0
		vertex 7.5 -27.0 0.0
	endloop
endfacet
endsolid 
solid 
facet normal 0 0 0
	outer loop
		vertex -7.5 -27.0 0.0
		vertex -7.5 27.0 0.0
		vertex -1.5 -27.0 0.0
	endloop
endfacet
facet normal 0 0 0
	outer loop
		vertex -7.5 27.0 0.0
		vertex -1.5 27.0 0.0
		vertex -1.5 -27.0 0.0
	endloop
endfacet
facet normal 0 0 0
	outer loop
		vertex -7.5 -27.0 27.0
		vertex -1.5 -27.0 27.0
		vertex -7.5 27.0 27.0
	endloop
endfacet
facet normal 0 0 0
	outer loop
		vertex -1.5 -27.0 27.0
		vertex -1.5 27.0 27.0
		vertex -7.5 27.0 27.0
	endloop
endfacet
facet normal 0 0 0
	outer loop
		vertex -7.5 -27.0 0.0
		vertex -1.5 -27.0 0.0
		vertex -7.5 -27.0 27.0
	endloop
endfacet
facet normal 0 0 0
	outer loop
		vertex -1.5 -27.0 0.0
		vertex -1.5 -27.0 27.0
		vertex -7.5 -27.0 27.0
	endloop
endfacet
facet normal 0 0 0
	outer loop
		vertex -7.5 27.0 0.0
		vertex -7.5 27.0 27.0
		vertex -1.5 27.0 0.0
	endloop
endfacet
facet normal 0 0 0
	outer loop
		vertex -1.5 27.0 0.0
		vertex -7.5 27.0 27.0
		vertex -1.5 27.0 27.0
	endloop
endfacet
facet normal 0 0 0
	outer loop
		vertex -7.5 -27.0 0.0
		vertex -7.5 -27.0 27.0
		vertex -7.5 27.0 0.0
	endloop
endfacet
facet normal 0 0 0
	outer loop
		vertex -7.5 27.0 0.0
		vertex -7.5 -27.0 27.0
		vertex -7.5 27.0 27.0
	endloop
endfacet
facet normal 0 0 0
	outer loop
		vertex -1.5 27.0 0.0
		vertex -1.5 27.0 27.0
		vertex -1.5 -27.0 27.0
	endloop
endfacet
facet normal 0 0 0
	outer loop
		vertex -1.5 27.0 0.0
		vertex -1.5 -27.0 27.0
		vertex -1.5 -27.0 0.0
	endloop
endfacet
endsolid 
solid 
facet normal 0 0 0
	outer loop
		vertex -3.0 -25.0 0.0
		vertex -3.0 25.0 0.0
		vertex 3.0 -25.0 0.0
	endloop
endfacet
facet normal 0 0 0
	outer loop
		vertex -3.0 25.0 0.0
		vertex 3.0 25.0 0.0
		vertex 3.0 -25.0 0.0
	endloop
endfacet
facet normal 0 0 0
	outer loop
		vertex -3.0 -25.0 27.0
		vertex 3.0 -25.0 27.0
		vertex -3.0 25.0 27.0
	endloop
endfacet
facet normal 0 0 0
	outer loop
		vertex 3.0 -25.0 27.0
		vertex 3.0 25.0 27.0
		vertex -3.0 25.0 27.0
	endloop
endfacet
facet normal 0 0 0
	outer loop
		vertex -3.0 -25.0 0.0
		vertex 3.0 -25.0 0.0
		vertex -3.0 -25.0 27.0
	endloop
endfacet
facet normal 0 0 0
	outer loop
		vertex 3.0 -25.0 0.0
		vertex 3.0 -25.0 27.0
		vertex -3.0 -25.0 27.0
	endloop
endfacet
facet normal 0 0 0
	outer loop
		vertex -3.0 25.0 0.0
		vertex -3.0 25.0 27.0
		vertex 3.0 25.0 0.0
	endloop
endfacet
facet normal 0 0 0
	outer loop
		vertex 3.0 25.0 0.0
		vertex -3.0 25.0 27.0
		vertex 3.0 25.0 27.0
	endloop
endfacet
facet normal 0 0 0
	outer loop
		vertex -3.0 -25.0 0.0
		vertex -3.0 -25.0 27.0
		vertex -3.0 25.0 0.0
	endloop
endfacet
facet normal 0 0 0
	outer loop
		vertex -3.0 25.0 0.0
		vertex -3.0 -25.0 27.0
		vertex -3.0 25.0 27.0
	endloop
endfacet
facet normal 0 0 0
	outer loop
		vertex 3.0 25.0 0.0
		vertex 3.0 25.0 27.0
		vertex 3.0 -25.0 27.0
	endloop
endfacet
facet normal 0 0 0
	outer loop
		vertex 3.0 25.0 0.0
		vertex 3.0 -25.0 27.0
		vertex 3.0 -25.0 0.0
	endloop
endfacet
endsolid 
solid 
facet normal 0 0 0
	outer loop
		vertex -8.5 -26.0 3.0
		vertex -8.5 26.0 3.0
		vertex 8.5 -26.0 3.0
	endloop
endfacet
facet normal 0 0 0
	outer loop
		vertex -8.5 26.0 3.0
		vertex 8.5 26.0 3.0
		vertex 8.5 -26.0 3.0
	endloop
endfacet
facet normal 0 0 0
	outer loop
		vertex -8.5 -26.0 4.0
		vertex 8.5 -26.0 4.0
		vertex -8.5 26.0 4.0
	endloop
endfacet
facet normal 0 0 0
	outer loop
		vertex 8.5 -26.0 4.0
		vertex 8.5 26.0 4.0
		vertex -8.5 26.0 4.0
	endloop
endfacet
facet normal 0 0 0
	outer loop
		vertex -8.5 -26.0 3.0
		vertex 8.5 -26.0 3.0
		vertex -8.5 -26.0 4.0
	endloop
endfacet
facet normal 0 0 0
	outer loop
		vertex 8.5 -26.0 3.0
		vertex 8.5 -26.0 4.0
		vertex -8.5 -26.0 4.0
	endloop
endfacet
facet normal 0 0 0
	outer loop
		vertex -8.5 26.0 3.0
		vertex -8.5 26.0 4.0
		vertex 8.5 26.0 3.0
	endloop
endfacet
facet normal 0 0 0
	outer loop
		vertex 8.5 26.0 3.0
		vertex -8.5 26.0 4.0
		vertex 8.5 26.0 4.0
	endloop
endfacet
facet normal 0 0 0
	outer loop
		vertex -8.5 -26.0 3.0
		vertex -8.5 -26.0 4.0
		vertex -8.5 26.0 3.0
	endloop
endfacet
facet normal 0 0 0
	outer loop
		vertex -8.5 26.0 3.0
		vertex -8.5 -26.0 4.0
		vertex -8.5 26.0 4.0
	endloop
endfacet
facet normal 0 0 0
	outer loop
		vertex 8.5 26.0 3.0
		vertex 8.5 26.0 4.0
		vertex 8.5 -26.0 4.0
	endloop
endfacet
facet normal 0 0 0
	outer loop
		vertex 8.5 26.0 3.0
		vertex 8.5 -26.0 4.0
		vertex 8.5 -26.0 3.0
	endloop
endfacet
endsolid 
solid 
facet normal 0 0 0
	outer loop
		vertex -8.5 -26.0 6.0
		vertex -8.5 26.0 6.0
		vertex 8.5 -26.0 6.0
	endloop
endfacet
facet normal 0 0 0
	outer loop
		vertex -8.5 26.0 6.0
		vertex 8.5 26.0 6.0
		vertex 8.5 -26.0 6.0
	endloop
endfacet
facet normal 0 0 0
	outer loop
		vertex -8.5 -26.0 7.0
		vertex 8.5 -26.0 7.0
		vertex -8.5 26.0 7.0
	endloop
endfacet
facet normal 0 0 0
	outer loop
		vertex 8.5 -26.0 7.0
		vertex 8.5 26.0 7.0
		vertex -8.5 26.0 7.0
	endloop
endfacet
facet normal 0 0 0
	outer loop
		vertex -8.5 -26.0 6.0
		vertex 8.5 -26.0 6.0
		vertex -8.5 -26.0 7.0
	endloop
endfacet
facet normal 0 0 0
	outer loop
		vertex 8.5 -26.0 6.0
		vertex 8.5 -26.0 7.0
		vertex -8.5 -26.0 7.0
	endloop
endfacet
facet normal 0 0 0
	outer loop
		vertex -8.5 26.0 6.0
		vertex -8.5 26.0 7.0
		vertex 8.5 26.0 6.0
	endloop
endfacet
facet normal 0 0 0
	outer loop
		vertex 8.5 26.0 6.0
		vertex -8.5 26.0 7.0
		vertex 8.5 26.0 7.0
	endloop
endfacet
facet normal 0 0 0
	outer loop
		vertex -8.5 -26.0 6.0
		vertex -8.5 -26.0 7.0
		vertex -8.5 26.0 6.0
	endloop
endfacet
facet normal 0 0 0
	outer loop
		vertex -8.5 26.0 6.0
		vertex -8.5 -26.0 7.0
		vertex -8.5 26.0 7.0
	endloop
endfacet
facet normal 0 0 0
	outer loop
		vertex 8.5 26.0 6.0
		vertex 8.5 26.0 7.0
		vertex 8.5 -26.0 7.0
	endloop
endfacet
facet normal 0 0 0
	outer loop
		vertex 8.5 26.0 6.0
		vertex 8.5 -26.0 7.0
		vertex 8.5 -26.0 6.0
	endloop
endfacet
endsolid 
solid 
facet normal 0 0 0
	outer loop
		vertex -8.5 -26.0 9.0
		vertex -8.5 26.0 9.0
		vertex 8.5 -26.0 9.0
	endloop
endfacet
facet normal 0 0 0
	outer loop
		vertex -8.5 26.0 9.0
		vertex 8.5 26.0 9.0
		vertex 8.5 -26.0 9.0
	endloop
endfacet
facet normal 0 0 0
	outer loop
		vertex -8.5 -26.0 10.0
		vertex 8.5 -26.0 10.0
		vertex -8.5 26.0 10.0
	endloop
endfacet
facet normal 0 0 0
	outer loop
		vertex 8.5 -26.0 10.0
		vertex 8.5 26.0 10.0
		vertex -8.5 26.0 10.0
	endloop
endfacet
facet normal 0 0 0
	outer loop
		vertex -8.5 -26.0 9.0
		vertex 8.5 -26.0 9.0
		vertex -8.5 -26.0 10.0
	endloop
endfacet
facet normal 0 0 0
	outer loop
		vertex 8.5 -26.0 9.0
		vertex 8.5 -26.0 10.0
		vertex -8.5 -26.0 10.0
	endloop
endfacet
facet normal 0 0 0
	outer loop
		vertex -8.5 26.0 9.0
		vertex -8.5 26.0 10.0
		vertex 8.5 26.0 9.0
	endloop
endfacet
facet normal 0 0 0
	outer loop
		vertex 8.5 26.0 9.0
		vertex -8.5 26.0 10.0
		vertex 8.5 26.0 10.0
	endloop
endfacet
facet normal 0 0 0
	outer loop
		vertex -8.5 -26.0 9.0
		vertex -8.5 -26.0 10.0
		vertex -8.5 26.0 9.0
	endloop
endfacet
facet normal 0 0 0
	outer loop
		vertex -8.5 26.0 9.0
		vertex -8.5 -26.0 10.0
		vertex -8.5 26.0 10.0
	endloop
endfacet
facet normal 0 0 0
	outer loop
		vertex 8.5 26.0 9.0
		vertex 8.5 26.0 10.0
		vertex 8.5 -26.0 10.0
	endloop
endfacet
facet normal 0 0 0
	outer loop
		vertex 8.5 26.0 9.0
		vertex 8.5 -26.0 10.0
		vertex 8.5 -26.0 9.0
	endloop
endfacet
endsolid 
solid 
facet normal 0 0 0
	outer loop
		vertex -8.5 -26.0 12.0
		vertex -8.5 26.0 12.0
		vertex 8.5 -26.0 12.0
	endloop
endfacet
facet normal 0 0 0
	outer loop
		vertex -8.5 26.0 12.0
		vertex 8.5 26.0 12.0
		vertex 8.5 -26.0 12.0
	endloop
endfacet
facet normal 0 0 0
	outer loop
		vertex -8.5 -26.0 13.0
		vertex 8.5 -26.0 13.0
		vertex -8.5 26.0 13.0
	endloop
endfacet
facet normal 0 0 0
	outer loop
		vertex 8.5 -26.0 13.0
		vertex 8.5 26.0 13.0
		vertex -8.5 26.0 13.0
	endloop
endfacet
facet normal 0 0 0
	outer loop
		vertex -8.5 -26.0 12.0
		vertex 8.5 -26.0 12.0
		vertex -8.5 -26.0 13.0
	endloop
endfacet
facet normal 0 0 0
	outer loop
		vertex 8.5 -26.0 12.0
		vertex 8.5 -26.0 13.0
		vertex -8.5 -26.0 13.0
	endloop
endfacet
facet normal 0 0 0
	outer loop
		vertex -8.5 26.0 12.0
		vertex -8.5 26.0 13.0
		vertex 8.5 26.0 12.0
	endloop
endfacet
facet normal 0 0 0
	outer loop
		vertex 8.5 26.0 12.0
		vertex -8.5 26.0 13.0
		vertex 8.5 26.0 13.0
	endloop
endfacet
facet normal 0 0 0
	outer loop
		vertex -8.5 -26.0 12.0
		vertex -8.5 -26.0 13.0
		vertex -8.5 26.0 12.0
	endloop
endfacet
facet normal 0 0 0
	outer loop
		vertex -8.5 26.0 12.0
		vertex -8.5 -26.0 13.0
		vertex -8.5 26.0 13.0
	endloop
endfacet
facet normal 0 0 0
	outer loop
		vertex 8.5 26.0 12.0
		vertex 8.5 26.0 13.0
		vertex 8.5 -26.0 13.0
	endloop
endfacet
facet normal 0 0 0
	outer loop
		vertex 8.5 26.0 12.0
		vertex 8.5 -26.0 13.0
		vertex 8.5 -26.0 12.0
	endloop
endfacet
endsolid 
solid 
facet normal 0 0 0
	outer loop
		vertex -8.5 -26.0 15.0
		vertex -8.5 26.0 15.0
		vertex 8.5 -26.0 15.0
	endloop
endfacet
facet normal 0 0 0
	outer loop
		vertex -8.5 26.0 15.0
		vertex 8.5 26.0 15.0
		vertex 8.5 -26.0 15.0
	endloop
endfacet
facet normal 0 0 0
	outer loop
		vertex -8.5 -26.0 16.0
		vertex 8.5 -26.0 16.0
		vertex -8.5 26.0 16.0
	endloop
endfacet
facet normal 0 0 0
	outer loop
		vertex 8.5 -26.0 16.0
		vertex 8.5 26.0 16.0
		vertex -8.5 26.0 16.0
	endloop
endfacet
facet normal 0 0 0
	outer loop
		vertex -8.5 -26.0 15.0
		vertex 8.5 -26.0 15.0
		vertex -8.5 -26.0 16.0
	endloop
endfacet
facet normal 0 0 0
	outer loop
		vertex 8.5 -26.0 15.0
		vertex 8.5 -26.0 16.0
		vertex -8.5 -26.0 16.0
	endloop
endfacet
facet normal 0 0 0
	outer loop
		vertex -8.5 26.0 15.0
		vertex -8.5 26.0 16.0
		vertex 8.5 26.0 15.0
	endloop
endfacet
facet normal 0 0 0
	outer loop
		vertex 8.5 26.0 15.0
		vertex -8.5 26.0 16.0
		vertex 8.5 26.0 16.0
	endloop
endfacet
facet normal 0 0 0
	outer loop
		vertex -8.5 -26.0 15.0
		vertex -8.5 -26.0 16.0
		vertex -8.5 26.0 15.0
	endloop
endfacet
facet normal 0 0 0
	outer loop
		vertex -8.5 26.0 15.0
		vertex -8.5 -26.0 16.0
		vertex -8.5 26.0 16.0
	endloop
endfacet
facet normal 0 0 0
	outer loop
		vertex 8.5 26.0 15.0
		vertex 8.5 26.0 16.0
		vertex 8.5 -26.0 16.0
	endloop
endfacet
facet normal 0 0 0
	outer loop
		vertex 8.5 26.0 15.0
		vertex 8.5 -26.0 16.0
		vertex 8.5 -26.0 15.0
	endloop
endfacet
endsolid 
solid 
facet normal 0 0 0
	outer loop
		vertex -8.5 -26.0 18.0
		vertex -8.5 26.0 18.0
		vertex 8.5 -26.0 18.0
	endloop
endfacet
facet normal 0 0 0
	outer loop
		vertex -8.5 26.0 18.0
		vertex 8.5 26.0 18.0
		vertex 8.5 -26.0 18.0
	endloop
endfacet
facet normal 0 0 0
	outer loop
		vertex -8.5 -26.0 19.0
		vertex 8.5 -26.0 19.0
		vertex -8.5 26.0 19.0
	endloop
endfacet
facet normal 0 0 0
	outer loop
		vertex 8.5 -26.0 19.0
		vertex 8.5 26.0 19.0
		vertex -8.5 26.0 19.0
	endloop
endfacet
facet normal 0 0 0
	outer loop
		vertex -8.5 -26.0 18.0
		vertex 8.5 -26.0 18.0
		vertex -8.5 -26.0 19.0
	endloop
endfacet
facet normal 0 0 0
	outer loop
		vertex 8.5 -26.0 18.0
		vertex 8.5 -26.0 19.0
		vertex -8.5 -26.0 19.0
	endloop
endfacet
facet normal 0 0 0
	outer loop
		vertex -8.5 26.0 18.0
		vertex -8.5 26.0 19.0
		vertex 8.5 26.0 18.0
	endloop
endfacet
facet normal 0 0 0
	outer loop
		vertex 8.5 26.0 18.0
		vertex -8.5 26.0 19.0
		vertex 8.5 26.0 19.0
	endloop
endfacet
facet normal 0 0 0
	outer loop
		vertex -8.5 -26.0 18.0
		vertex -8.5 -26.0 19.0
		vertex -8.5 26.0 18.0
	endloop
endfacet
facet normal 0 0 0
	outer loop
		vertex -8.5 26.0 18.0
		vertex -8.5 -26.0 19.0
		vertex -8.5 26.0 19.0
	endloop
endfacet
facet normal 0 0 0
	outer loop
		vertex 8.5 26.0 18.0
		vertex 8.5 26.0 19.0
		vertex 8.5 -26.0 19.0
	endloop
endfacet
facet normal 0 0 0
	outer loop
		vertex 8.5 26.0 18.0
		vertex 8.5 -26.0 19.0
		vertex 8.5 -26.0 18.0
	endloop
endfacet
endsolid 
solid 
facet normal 0 0 0
	outer loop
		vertex -8.5 -26.0 21.0
		vertex -8.5 26.0 21.0
		vertex 8.5 -26.0 21.0
	endloop
endfacet
facet normal 0 0 0
	outer loop
		vertex -8.5 26.0 21.0
		vertex 8.5 26.0 21.0
		vertex 8.5 -26.0 21.0
	endloop
endfacet
facet normal 0 0 0
	outer loop
		vertex -8.5 -26.0 22.0
		vertex 8.5 -26.0 22.0
		vertex -8.5 26.0 22.0
	endloop
endfacet
facet normal 0 0 0
	outer loop
		vertex 8.5 -26.0 22.0
		vertex 8.5 26.0 22.0
		vertex -8.5 26.0 22.0
	endloop
endfacet
facet normal 0 0 0
	outer loop
		vertex -8.5 -26.0 21.0
		vertex 8.5 -26.0 21.0
		vertex -8.5 -26.0 22.0
	endloop
endfacet
facet normal 0 0 0
	outer loop
		vertex 8.5 -26.0 21.0
		vertex 8.5 -26.0 22.0
		vertex -8.5 -26.0 22.0
	endloop
endfacet
facet normal 0 0 0
	outer loop
		vertex -8.5 26.0 21.0
		vertex -8.5 26.0 22.0
		vertex 8.5 26.0 21.0
	endloop
endfacet
facet normal 0 0 0
	outer loop
		vertex 8.5 26.0 21.0
		vertex -8.5 26.0 22.0
		vertex 8.5 26.0 22.0
	endloop
endfacet
facet normal 0 0 0
	outer loop
		vertex -8.5 -26.0 21.0
		vertex -8.5 -26.0 22.0
		vertex -8.5 26.0 21.0
	endloop
endfacet
facet normal 0 0 0
	outer loop
		vertex -8.5 26.0 21.0
		vertex -8.5 -26.0 22.0
		vertex -8.5 26.0 22.0
	endloop
endfacet
facet normal 0 0 0
	outer loop
		vertex 8.5 26.0 21.0
		vertex 8.5 26.0 22.0
		vertex 8.5 -26.0 22.0
	endloop
endfacet
facet normal 0 0 0
	outer loop
		vertex 8.5 26.0 21.0
		vertex 8.5 -26.0 22.0
		vertex 8.5 -26.0 21.0
	endloop
endfacet
endsolid 
solid 
facet normal 0 0 0
	outer loop
		vertex -8.5 -26.0 24.0
		vertex -8.5 26.0 24.0
		vertex 8.5 -26.0 24.0
	endloop
endfacet
facet normal 0 0 0
	outer loop
		vertex -8.5 26.0 24.0
		vertex 8.5 26.0 24.0
		vertex 8.5 -26.0 24.0
	endloop
endfacet
facet normal 0 0 0
	outer loop
		vertex -8.5 -26.0 25.0
		vertex 8.5 -26.0 25.0
		vertex -8.5 26.0 25.0
	endloop
endfacet
facet normal 0 0 0
	outer loop
		vertex 8.5 -26.0 25.0
		vertex 8.5 26.0 25.0
		vertex -8.5 26.0 25.0
	endloop
endfacet
facet normal 0 0 0
	outer loop
		vertex -8.5 -26.0 24.0
		vertex 8.5 -26.0 24.0
		vertex -8.5 -26.0 25.0
	endloop
endfacet
facet normal 0 0 0
	outer loop
		vertex 8.5 -26.0 24.0
		vertex 8.5 -26.0 25.0
		vertex -8.5 -26.0 25.0
	endloop
endfacet
facet normal 0 0 0
	outer loop
		vertex -8.5 26.0 24.0
		vertex -8.5 26.0 25.0
		vertex 8.5 26.0 24.0
	endloop
endfacet
facet normal 0 0 0
	outer loop
		vertex 8.5 26.0 24.0
		vertex -8.5 26.0 25.0
		vertex 8.5 26.0 25.0
	endloop
endfacet
facet normal 0 0 0
	outer loop
		vertex -8.5 -26.0 24.0
		vertex -8.5 -26.0 25.0
		vertex -8.5 26.0 24.0
	endloop
endfacet
facet normal 0 0 0
	outer loop
		vertex -8.5 26.0 24.0
		vertex -8.5 -26.0 25.0
		vertex -8.5 26.0 25.0
	endloop
endfacet
facet normal 0 0 0
	outer loop
		vertex 8.5 26.0 24.0
		vertex 8.5 26.0 25.0
		vertex 8.5 -26.0 25.0
	endloop
endfacet
facet normal 0 0 0
	outer loop
		vertex 8.5 26.0 24.0
		vertex 8.5 -26.0 25.0
		vertex 8.5 -26.0 24.0
	endloop
endfacet
endsolid 
solid 
facet normal 0 0 0
	outer loop
		vertex -8.5 -18.05 3.0
		vertex -8.5 -17.95 3.0
		vertex 8.5 -18.05 3.0
	endloop
endfacet
facet normal 0 0 0
	outer loop
		vertex -8.5 -17.95 3.0
		vertex 8.5 -17.95 3.0
		vertex 8.5 -18.05 3.0
	endloop
endfacet
facet normal 0 0 0
	outer loop
		vertex -8.5 -18.05 27.0
		vertex 8.5 -18.05 27.0
		vertex -8.5 -17.95 27.0
	endloop
endfacet
facet normal 0 0 0
	outer loop
		vertex 8.5 -18.05 27.0
		vertex 8.5 -17.95 27.0
		vertex -8.5 -17.95 27.0
	endloop
endfacet
facet normal 0 0 0
	outer loop
		vertex -8.5 -18.05 3.0
		vertex 8.5 -18.05 3.0
		vertex -8.5 -18.05 27.0
	endloop
endfacet
facet normal 0 0 0
	outer loop
		vertex 8.5 -18.05 3.0
		vertex 8.5 -18.05 27.0
		vertex -8.5 -18.05 27.0
	endloop
endfacet
facet normal 0 0 0
	outer loop
		vertex -8.5 -17.95 3.0
		vertex -8.5 -17.95 27.0
		vertex 8.5 -17.95 3.0
	endloop
endfacet
facet normal 0 0 0
	outer loop
		vertex 8.5 -17.95 3.0
		vertex -8.5 -17.95 27.0
		vertex 8.5 -17.95 27.0
	endloop
endfacet
facet normal 0 0 0
	outer loop
		vertex -8.5 -18.05 3.0
		vertex -8.5 -18.05 27.0
		vertex -8.5 -17.95 3.0
	endloop
endfacet
facet normal 0 0 0
	outer loop
		vertex -8.5 -17.95 3.0
		vertex -8.5 -18.05 27.0
		vertex -8.5 -17.95 27.0
	endloop
endfacet
facet normal 0 0 0
	outer loop
		vertex 8.5 -17.95 3.0
		vertex 8.5 -17.95 27.0
		vertex 8.5 -18.05 27.0
	endloop
endfacet
facet normal 0 0 0
	outer loop
		vertex 8.5 -17.95 3.0
		vertex 8.5 -18.05 27.0
		vertex 8.5 -18.05 3.0
	endloop
endfacet
endsolid 
solid 
facet normal 0 0 0
	outer loop
		vertex -8.5 -9.05 3.0
		vertex -8.5 -8.95 3.0
		vertex 8.5 -9.05 3.0
	endloop
endfacet
facet normal 0 0 0
	outer loop
		vertex -8.5 -8.95 3.0
		vertex 8.5 -8.95 3.0
		vertex 8.5 -9.05 3.0
	endloop
endfacet
facet normal 0 0 0
	outer loop
		vertex -8.5 -9.05 27.0
		vertex 8.5 -9.05 27.0
		vertex -8.5 -8.95 27.0
	endloop
endfacet
facet normal 0 0 0
	outer loop
		vertex 8.5 -9.05 27.0
		vertex 8.5 -8.95 27.0
		vertex -8.5 -8.95 27.0
	endloop
endfacet
facet normal 0 0 0
	outer loop
		vertex -8.5 -9.05 3.0
		vertex 8.5 -9.05 3.0
		vertex -8.5 -9.05 27.0
	endloop
endfacet
facet normal 0 0 0
	outer loop
		vertex 8.5 -9.05 3.0
		vertex 8.5 -9.05 27.0
		vertex -8.5 -9.05 27.0
	endloop
endfacet
facet normal 0 0 0
	outer loop
		vertex -8.5 -8.95 3.0
		vertex -8.5 -8.95 27.0
		vertex 8.5 -8.95 3.0
	endloop
endfacet
facet normal 0 0 0
	outer loop
		vertex 8.5 -8.95 3.0
		vertex -8.5 -8.95 27.0
		vertex 8.5 -8.95 27.0
	endloop
endfacet
facet normal 0 0 0
	outer loop
		vertex -8.5 -9.05 3.0
		vertex -8.5 -9.05 27.0
		vertex -8.5 -8.95 3.0
	endloop
endfacet
facet normal 0 0 0
	outer loop
		vertex -8.5 -8.95 3.0
		vertex -8.5 -9.05 27.0
		vertex -8.5 -8.95 27.0
	endloop
endfacet
facet normal 0 0 0
	outer loop
		vertex 8.5 -8.95 3.0
		vertex 8.5 -8.95 27.0
		vertex 8.5 -9.05 27.0
	endloop
endfacet
facet normal 0 0 0
	outer loop
		vertex 8.5 -8.95 3.0
		vertex 8.5 -9.05 27.0
		vertex 8.5 -9.05 3.0
	endloop
endfacet
endsolid 
solid 
facet normal 0 0 0
	outer loop
		vertex -8.5 -0.05 3.0
		vertex -8.5 0.05 3.0
		vertex 8.5 -0.05 3.0
	endloop
endfacet
facet normal 0 0 0
	outer loop
		vertex -8.5 0.05 3.0
		vertex 8.5 0.05 3.0
		vertex 8.5 -0.05 3.0
	endloop
endfacet
facet normal 0 0 0
	outer loop
		vertex -8.5 -0.05 27.0
		vertex 8.5 -0.05 27.0
		vertex -8.5 0.05 27.0
	endloop
endfacet
facet normal 0 0 0
	outer loop
		vertex 8.5 -0.05 27.0
		vertex 8.5 0.05 27.0
		vertex -8.5 0.05 27.0
	endloop
endfacet
facet normal 0 0 0
	outer loop
		vertex -8.5 -0.05 3.0
		vertex 8.5 -0.05 3.0
		vertex -8.5 -0.05 27.0
	endloop
endfacet
facet normal 0 0 0
	outer loop
		vertex 8.5 -0.05 3.0
		vertex 8.5 -0.05 27.0
		vertex -8.5 -0.05 27.0
	endloop
endfacet
facet normal 0 0 0
	outer loop
		vertex -8.5 0.05 3.0
		vertex -8.5 0.05 27.0
		vertex 8.5 0.05 3.0
	endloop
endfacet
facet normal 0 0 0
	outer loop
		vertex 8.5 0.05 3.0
		vertex -8.5 0.05 27.0
		vertex 8.5 0.05 27.0
	endloop
endfacet
facet normal 0 0 0
	outer loop
		vertex -8.5 -0.05 3.0
		vertex -8.5 -0.05 27.0
		vertex -8.5 0.05 3.0
	endloop
endfacet
facet normal 0 0 0
	outer loop
		vertex -8.5 0.05 3.0
		vertex -8.5 -0.05 27.0
		vertex -8.5 0.05 27.0
	endloop
endfacet
facet normal 0 0 0
	outer loop
		vertex 8.5 0.05 3.0
		vertex 8.5 0.05 27.0
		vertex 8.5 -0.05 27.0
	endloop
endfacet
facet normal 0 0 0
	outer loop
		vertex 8.5 0.05 3.0
		vertex 8.5 -0.05 27.0
		vertex 8.5 -0.05 3.0
	endloop
endfacet
endsolid 
solid 
facet normal 0 0 0
	outer loop
		vertex -8.5 8.95 3.0
		vertex -8.5 9.05 3.0
		vertex 8.5 8.95 3.0
	endloop
endfacet
facet normal 0 0 0
	outer loop
		vertex -8.5 9.05 3.0
		vertex 8.5 9.05 3.0
		vertex 8.5 8.95 3.0
	endloop
endfacet
facet normal 0 0 0
	outer loop
		vertex -8.5 8.95 27.0
		vertex 8.5 8.95 27.0
		vertex -8.5 9.05 27.0
	endloop
endfacet
facet normal 0 0 0
	outer loop
		vertex 8.5 8.95 27.0
		vertex 8.5 9.05 27.0
		vertex -8.5 9.05 27.0
	endloop
endfacet
facet normal 0 0 0
	outer loop
		vertex -8.5 8.95 3.0
		vertex 8.5 8.95 3.0
		vertex -8.5 8.95 27.0
	endloop
endfacet
facet normal 0 0 0
	outer loop
		vertex 8.5 8.95 3.0
		vertex 8.5 8.95 27.0
		vertex -8.5 8.95 27.0
	endloop
endfacet
facet normal 0 0 0
	outer loop
		vertex -8.5 9.05 3.0
		vertex -8.5 9.05 27.0
		vertex 8.5 9.05 3.0
	endloop
endfacet
facet normal 0 0 0
	outer loop
		vertex 8.5 9.05 3.0
		vertex -8.5 9.05 27.0
		vertex 8.5 9.05 27.0
	endloop
endfacet
facet normal 0 0 0
	outer loop
		vertex -8.5 8.95 3.0
		vertex -8.5 8.95 27.0
		vertex -8.5 9.05 3.0
	endloop
endfacet
facet normal 0 0 0
	outer loop
		vertex -8.5 9.05 3.0
		vertex -8.5 8.95 27.0
		vertex -8.5 9.05 27.0
	endloop
endfacet
facet normal 0 0 0
	outer loop
		vertex 8.5 9.05 3.0
		vertex 8.5 9.05 27.0
		vertex 8.5 8.95 27.0
	endloop
endfacet
facet normal 0 0 0
	outer loop
		vertex 8.5 9.05 3.0
		vertex 8.5 8.95 27.0
		vertex 8.5 8.95 3.0
	endloop
endfacet
endsolid 
solid 
facet normal 0 0 0
	outer loop
		vertex -8.5 17.95 3.0
		vertex -8.5 18.05 3.0
		vertex 8.5 17.95 3.0
	endloop
endfacet
facet normal 0 0 0
	outer loop
		vertex -8.5 18.05 3.0
		vertex 8.5 18.05 3.0
		vertex 8.5 17.95 3.0
	endloop
endfacet
facet normal 0 0 0
	outer loop
		vertex -8.5 17.95 27.0
		vertex 8.5 17.95 27.0
		vertex -8.5 18.05 27.0
	endloop
endfacet
facet normal 0 0 0
	outer loop
		vertex 8.5 17.95 27.0
		vertex 8.5 18.05 27.0
		vertex -8.5 18.05 27.0
	endloop
endfacet
facet normal 0 0 0
	outer loop
		vertex -8.5 17.95 3.0
		vertex 8.5 17.95 3.0
		vertex -8.5 17.95 27.0
	endloop
endfacet
facet normal 0 0 0
	outer loop
		vertex 8.5 17.95 3.0
		vertex 8.5 17.95 27.0
		vertex -8.5 17.95 27.0
	endloop
endfacet
facet normal 0 0 0
	outer loop
		vertex -8.5 18.05 3.0
		vertex -8.5 18.05 27.0
		vertex 8.5 18.05 3.0
	endloop
endfacet
facet normal 0 0 0
	outer loop
		vertex 8.5 18.05 3.0
		vertex -8.5 18.05 27.0
		vertex 8.5 18.05 27.0
	endloop
endfacet
facet normal 0 0 0
	outer loop
		vertex -8.5 17.95 3.0
		vertex -8.5 17.95 27.0
		vertex -8.5 18.05 3.0
	endloop
endfacet
facet normal 0 0 0
	outer loop
		vertex -8.5 18.05 3.0
		vertex -8.5 17.95 27.0
		vertex -8.5 18.05 27.0
	endloop
endfacet
facet normal 0 0 0
	outer loop
		vertex 8.5 18.05 3.0
		vertex 8.5 18.05 27.0
		vertex 8.5 17.95 27.0
	endloop
endfacet
facet normal 0 0 0
	outer loop
		vertex 8.5 18.05 3.0
		vertex 8.5 17.95 27.0
		vertex 8.5 17.95 3.0
	endloop
endfacet
endsolid 
