solid 
facet normal 0 0 0
	outer loop
		vertex -25.0 -25.0 0.0
		vertex -25.0 25.0 0.0
		vertex 25.0 -25.0 0.0
	endloop
endfacet
facet normal 0 0 0
	outer loop
		vertex -25.0 25.0 0.0
		vertex 25.0 25.0 0.0
		vertex 25.0 -25.0 0.0
	endloop
endfacet
facet normal 0 0 0
	outer loop
		vertex -25.0 -25.0 6.0
		vertex 25.0 -25.0 6.0
		vertex -25.0 25.0 6.0
	endloop
endfacet
facet normal 0 0 0
	outer loop
		vertex 25.0 -25.0 6.0
		vertex 25.0 25.0 6.0
		vertex -25.0 25.0 6.0
	endloop
endfacet
facet normal 0 0 0
	outer loop
		vertex -25.0 -25.0 0.0
		vertex 25.0 -25.0 0.0
		vertex -25.0 -25.0 6.0
	endloop
endfacet
facet normal 0 0 0
	outer loop
		vertex 25.0 -25.0 0.0
		vertex 25.0 -25.0 6.0
		vertex -25.0 -25.0 6.0
	endloop
endfacet
facet normal 0 0 0
	outer loop
		vertex -25.0 25.0 0.0
		vertex -25.0 25.0 6.0
		vertex 25.0 25.0 0.0
	endloop
endfacet
facet normal 0 0 0
	outer loop
		vertex 25.0 25.0 0.0
		vertex -25.0 25.0 6.0
		vertex 25.0 25.0 6.0
	endloop
endfacet
facet normal 0 0 0
	outer loop
		vertex -25.0 -25.0 0.0
		vertex -25.0 -25.0 6.0
		vertex -25.0 25.0 0.0
	endloop
endfacet
facet normal 0 0 0
	outer loop
		vertex -25.0 25.0 0.0
		vertex -25.0 -25.0 6.0
		vertex -25.0 25.0 6.0
	endloop
endfacet
facet normal 0 0 0
	outer loop
		vertex 25.0 25.0 0.0
		vertex 25.0 25.0 6.0
		vertex 25.0 -25.0 6.0
	endloop
endfacet
facet normal 0 0 0
	outer loop
		vertex 25.0 25.0 0.0
		vertex 25.0 -25.0 6.0
		vertex 25.0 -25.0 0.0
	endloop
endfacet
endsolid 
solid 
facet normal 0 0 0
	outer loop
		vertex -29.5 -29.5 6.0
		vertex -29.5 29.5 6.0
		vertex 29.5 -29.5 6.0
	endloop
endfacet
facet normal 0 0 0
	outer loop
		vertex -29.5 29.5 6.0
		vertex 29.5 29.5 6.0
		vertex 29.5 -29.5 6.0
	endloop
endfacet
facet normal 0 0 0
	outer loop
		vertex -29.5 -29.5 12.0
		vertex 29.5 -29.5 12.0
		vertex -29.5 29.5 12.0
	endloop
endfacet
facet normal 0 0 0
	outer loop
		vertex 29.5 -29.5 12.0
		vertex 29.5 29.5 12.0
		vertex -29.5 29.5 12.0
	endloop
endfacet
facet normal 0 0 0
	outer loop
		vertex -29.5 -29.5 6.0
		vertex 29.5 -29.5 6.0
		vertex -29.5 -29.5 12.0
	endloop
endfacet
facet normal 0 0 0
	outer loop
		vertex 29.5 -29.5 6.0
		vertex 29.5 -29.5 12.0
		vertex -29.5 -29.5 12.0
	endloop
endfacet
facet normal 0 0 0
	outer loop
		vertex -29.5 29.5 6.0
		vertex -29.5 29.5 12.0
		vertex 29.5 29.5 6.0
	endloop
endfacet
facet normal 0 0 0
	outer loop
		vertex 29.5 29.5 6.0
		vertex -29.5 29.5 12.0
		vertex 29.5 29.5 12.0
	endloop
endfacet
facet normal 0 0 0
	outer loop
		vertex -29.5 -29.5 6.0
		vertex -29.5 -29.5 12.0
		vertex -29.5 29.5 6.0
	endloop
endfacet
facet normal 0 0 0
	outer loop
		vertex -29.5 29.5 6.0
		vertex -29.5 -29.5 12.0
		vertex -29.5 29.5 12.0
	endloop
endfacet
facet normal 0 0 0
	outer loop
		vertex 29.5 29.5 6.0
		vertex 29.5 29.5 12.0
		vertex 29.5 -29.5 12.0
	endloop
endfacet
facet normal 0 0 0
	outer loop
		vertex 29.5 29.5 6.0
		vertex 29.5 -29.5 12.0
		vertex 29.5 -29.5 6.0
	endloop
endfacet
endsolid 
solid 
facet normal 0 0 0
	outer loop
		vertex -30.0 -30.0 5.5
		vertex -30.0 30.0 5.5
		vertex 30.0 -30.0 5.5
	endloop
endfacet
facet normal 0 0 0
	outer loop
		vertex -30.0 30.0 5.5
		vertex 30.0 30.0 5.5
		vertex 30.0 -30.0 5.5
	endloop
endfacet
facet normal 0 0 0
	outer loop
		vertex -30.0 -30.0 6.5
		vertex 30.0 -30.0 6.5
		vertex -30.0 30.0 6.5
	endloop
endfacet
facet normal 0 0 0
	outer loop
		vertex 30.0 -30.0 6.5
		vertex 30.0 30.0 6.5
		vertex -30.0 30.0 6.5
	endloop
endfacet
facet normal 0 0 0
	outer loop
		vertex -30.0 -30.0 5.5
		vertex 30.0 -30.0 5.5
		vertex -30.0 -30.0 6.5
	endloop
endfacet
facet normal 0 0 0
	outer loop
		vertex 30.0 -30.0 5.5
		vertex 30.0 -30.0 6.5
		vertex -30.0 -30.0 6.5
	endloop
endfacet
facet normal 0 0 0
	outer loop
		vertex -30.0 30.0 5.5
		vertex -30.0 30.0 6.5
		vertex 30.0 30.0 5.5
	endloop
endfacet
facet normal 0 0 0
	outer loop
		vertex 30.0 30.0 5.5
		vertex -30.0 30.0 6.5
		vertex 30.0 30.0 6.5
	endloop
endfacet
facet normal 0 0 0
	outer loop
		vertex -30.0 -30.0 5.5
		vertex -30.0 -30.0 6.5
		vertex -30.0 30.0 5.5
	endloop
endfacet
facet normal 0 0 0
	outer loop
		vertex -30.0 30.0 5.5
		vertex -30.0 -30.0 6.5
		vertex -30.0 30.0 6.5
	endloop
endfacet
facet normal 0 0 0
	outer loop
		vertex 30.0 30.0 5.5
		vertex 30.0 30.0 6.5
		vertex 30.0 -30.0 6.5
	endloop
endfacet
facet normal 0 0 0
	outer loop
		vertex 30.0 30.0 5.5
		vertex 30.0 -30.0 6.5
		vertex 30.0 -30.0 5.5
	endloop
endfacet
endsolid 
solid 
facet normal 0 0 0
	outer loop
		vertex -30.0 -30.0 11.5
		vertex -30.0 30.0 11.5
		vertex 30.0 -30.0 11.5
	endloop
endfacet
facet normal 0 0 0
	outer loop
		vertex -30.0 30.0 11.5
		vertex 30.0 30.0 11.5
		vertex 30.0 -30.0 11.5
	endloop
endfacet
facet normal 0 0 0
	outer loop
		vertex -30.0 -30.0 12.5
		vertex 30.0 -30.0 12.5
		vertex -30.0 30.0 12.5
	endloop
endfacet
facet normal 0 0 0
	outer loop
		vertex 30.0 -30.0 12.5
		vertex 30.0 30.0 12.5
		vertex -30.0 30.0 12.5
	endloop
endfacet
facet normal 0 0 0
	outer loop
		vertex -30.0 -30.0 11.5
		vertex 30.0 -30.0 11.5
		vertex -30.0 -30.0 12.5
	endloop
endfacet
facet normal 0 0 0
	outer loop
		vertex 30.0 -30.0 11.5
		vertex 30.0 -30.0 12.5
		vertex -30.0 -30.0 12.5
	endloop
endfacet
facet normal 0 0 0
	outer loop
		vertex -30.0 30.0 11.5
		vertex -30.0 30.0 12.5
		vertex 30.0 30.0 11.5
	endloop
endfacet
facet normal 0 0 0
	outer loop
		vertex 30.0 30.0 11.5
		vertex -30.0 30.0 12.5
		vertex 30.0 30.0 12.5
	endloop
endfacet
facet normal 0 0 0
	outer loop
		vertex -30.0 -30.0 11.5
		vertex -30.0 -30.0 12.5
		vertex -30.0 30.0 11.5
	endloop
endfacet
facet normal 0 0 0
	outer loop
		vertex -30.0 30.0 11.5
		vertex -30.0 -30.0 12.5
		vertex -30.0 30.0 12.5
	endloop
endfacet
facet normal 0 0 0
	outer loop
		vertex 30.0 30.0 11.5
		vertex 30.0 30.0 12.5
		vertex 30.0 -30.0 12.5
	endloop
endfacet
facet normal 0 0 0
	outer loop
		vertex 30.0 30.0 11.5
		vertex 30.0 -30.0 12.5
		vertex 30.0 -30.0 11.5
	endloop
endfacet
endsolid 
solid 
facet normal 0 0 0
	outer loop
		vertex -24.5 -31.0 0.0
		vertex -24.5 -29.0 0.0
		vertex -23.5 -31.0 0.0
	endloop
endfacet
facet normal 0 0 0
	outer loop
		vertex -24.5 -29.0 0.0
		vertex -23.5 -29.0 0.0
		vertex -23.5 -31.0 0.0
	endloop
endfacet
facet normal 0 0 0
	outer loop
		vertex -24.5 -31.0 12.0
		vertex -23.5 -31.0 12.0
		vertex -24.5 -29.0 12.0
	endloop
endfacet
facet normal 0 0 0
	outer loop
		vertex -23.5 -31.0 12.0
		vertex -23.5 -29.0 12.0
		vertex -24.5 -29.0 12.0
	endloop
endfacet
facet normal 0 0 0
	outer loop
		vertex -24.5 -31.0 0.0
		vertex -23.5 -31.0 0.0
		vertex -24.5 -31.0 12.0
	endloop
endfacet
facet normal 0 0 0
	outer loop
		vertex -23.5 -31.0 0.0
		vertex -23.5 -31.0 12.0
		vertex -24.5 -31.0 12.0
	endloop
endfacet
facet normal 0 0 0
	outer loop
		vertex -24.5 -29.0 0.0
		vertex -24.5 -29.0 12.0
		vertex -23.5 -29.0 0.0
	endloop
endfacet
facet normal 0 0 0
	outer loop
		vertex -23.5 -29.0 0.0
		vertex -24.5 -29.0 12.0
		vertex -23.5 -29.0 12.0
	endloop
endfacet
facet normal 0 0 0
	outer loop
		vertex -24.5 -31.0 0.0
		vertex -24.5 -31.0 12.0
		vertex -24.5 -29.0 0.0
	endloop
endfacet
facet normal 0 0 0
	outer loop
		vertex -24.5 -29.0 0.0
		vertex -24.5 -31.0 12.0
		vertex -24.5 -29.0 12.0
	endloop
endfacet
facet normal 0 0 0
	outer loop
		vertex -23.5 -29.0 0.0
		vertex -23.5 -29.0 12.0
		vertex -23.5 -31.0 12.0
	endloop
endfacet
facet normal 0 0 0
	outer loop
		vertex -23.5 -29.0 0.0
		vertex -23.5 -31.0 12.0
		vertex -23.5 -31.0 0.0
	endloop
endfacet
endsolid 
solid 
facet normal 0 0 0
	outer loop
		vertex -24.5 29.0 0.0
		vertex -24.5 31.0 0.0
		vertex -23.5 29.0 0.0
	endloop
endfacet
facet normal 0 0 0
	outer loop
		vertex -24.5 31.0 0.0
		vertex -23.5 31.0 0.0
		vertex -23.5 29.0 0.0
	endloop
endfacet
facet normal 0 0 0
	outer loop
		vertex -24.5 29.0 12.0
		vertex -23.5 29.0 12.0
		vertex -24.5 31.0 12.0
	endloop
endfacet
facet normal 0 0 0
	outer loop
		vertex -23.5 29.0 12.0
		vertex -23.5 31.0 12.0
		vertex -24.5 31.0 12.0
	endloop
endfacet
facet normal 0 0 0
	outer loop
		vertex -24.5 29.0 0.0
		vertex -23.5 29.0 0.0
		vertex -24.5 29.0 12.0
	endloop
endfacet
facet normal 0 0 0
	outer loop
		vertex -23.5 29.0 0.0
		vertex -23.5 29.0 12.0
		vertex -24.5 29.0 12.0
	endloop
endfacet
facet normal 0 0 0
	outer loop
		vertex -24.5 31.0 0.0
		vertex -24.5 31.0 12.0
		vertex -23.5 31.0 0.0
	endloop
endfacet
facet normal 0 0 0
	outer loop
		vertex -23.5 31.0 0.0
		vertex -24.5 31.0 12.0
		vertex -23.5 31.0 12.0
	endloop
endfacet
facet normal 0 0 0
	outer loop
		vertex -24.5 29.0 0.0
		vertex -24.5 29.0 12.0
		vertex -24.5 31.0 0.0
	endloop
endfacet
facet normal 0 0 0
	outer loop
		vertex -24.5 31.0 0.0
		vertex -24.5 29.0 12.0
		vertex -24.5 31.0 12.0
	endloop
endfacet
facet normal 0 0 0
	outer loop
		vertex -23.5 31.0 0.0
		vertex -23.5 31.0 12.0
		vertex -23.5 29.0 12.0
	endloop
endfacet
facet normal 0 0 0
	outer loop
		vertex -23.5 31.0 0.0
		vertex -23.5 29.0 12.0
		vertex -23.5 29.0 0.0
	endloop
endfacet
endsolid 
solid 
facet normal 0 0 0
	outer loop
		vertex -18.5 -31.0 0.0
		vertex -18.5 -29.0 0.0
		vertex -17.5 -31.0 0.0
	endloop
endfacet
facet normal 0 0 0
	outer loop
		vertex -18.5 -29.0 0.0
		vertex -17.5 -29.0 0.0
		vertex -17.5 -31.0 0.0
	endloop
endfacet
facet normal 0 0 0
	outer loop
		vertex -18.5 -31.0 12.0
		vertex -17.5 -31.0 12.0
		vertex -18.5 -29.0 12.0
	endloop
endfacet
facet normal 0 0 0
	outer loop
		vertex -17.5 -31.0 12.0
		vertex -17.5 -29.0 12.0
		vertex -18.5 -29.0 12.0
	endloop
endfacet
facet normal 0 0 0
	outer loop
		vertex -18.5 -31.0 0.0
		vertex -17.5 -31.0 0.0
		vertex -18.5 -31.0 12.0
	endloop
endfacet
facet normal 0 0 0
	outer loop
		vertex -17.5 -31.0 0.0
		vertex -17.5 -31.0 12.0
		vertex -18.5 -31.0 12.0
	endloop
endfacet
facet normal 0 0 0
	outer loop
		vertex -18.5 -29.0 0.0
		vertex -18.5 -29.0 12.0
		vertex -17.5 -29.0 0.0
	endloop
endfacet
facet normal 0 0 0
	outer loop
		vertex -17.5 -29.0 0.0
		vertex -18.5 -29.0 12.0
		vertex -17.5 -29.0 12.0
	endloop
endfacet
facet normal 0 0 0
	outer loop
		vertex -18.5 -31.0 0.0
		vertex -18.5 -31.0 12.0
		vertex -18.5 -29.0 0.0
	endloop
endfacet
facet normal 0 0 0
	outer loop
		vertex -18.5 -29.0 0.0
		vertex -18.5 -31.0 12.0
		vertex -18.5 -29.0 12.0
	endloop
endfacet
facet normal 0 0 0
	outer loop
		vertex -17.5 -29.0 0.0
		vertex -17.5 -29.0 12.0
		vertex -17.5 -31.0 12.0
	endloop
endfacet
facet normal 0 0 0
	outer loop
		vertex -17.5 -29.0 0.0
		vertex -17.5 -31.0 12.0
		vertex -17.5 -31.0 0.0
	endloop
endfacet
endsolid 
solid 
facet normal 0 0 0
	outer loop
		vertex -18.5 29.0 0.0
		vertex -18.5 31.0 0.0
		vertex -17.5 29.0 0.0
	endloop
endfacet
facet normal 0 0 0
	outer loop
		vertex -18.5 31.0 0.0
		vertex -17.5 31.0 0.0
		vertex -17.5 29.0 0.0
	endloop
endfacet
facet normal 0 0 0
	outer loop
		vertex -18.5 29.0 12.0
		vertex -17.5 29.0 12.0
		vertex -18.5 31.0 12.0
	endloop
endfacet
facet normal 0 0 0
	outer loop
		vertex -17.5 29.0 12.0
		vertex -17.5 31.0 12.0
		vertex -18.5 31.0 12.0
	endloop
endfacet
facet normal 0 0 0
	outer loop
		vertex -18.5 29.0 0.0
		vertex -17.5 29.0 0.0
		vertex -18.5 29.0 12.0
	endloop
endfacet
facet normal 0 0 0
	outer loop
		vertex -17.5 29.0 0.0
		vertex -17.5 29.0 12.0
		vertex -18.5 29.0 12.0
	endloop
endfacet
facet normal 0 0 0
	outer loop
		vertex -18.5 31.0 0.0
		vertex -18.5 31.0 12.0
		vertex -17.5 31.0 0.0
	endloop
endfacet
facet normal 0 0 0
	outer loop
		vertex -17.5 31.0 0.0
		vertex -18.5 31.0 12.0
		vertex -17.5 31.0 12.0
	endloop
endfacet
facet normal 0 0 0
	outer loop
		vertex -18.5 29.0 0.0
		vertex -18.5 29.0 12.0
		vertex -18.5 31.0 0.0
	endloop
endfacet
facet normal 0 0 0
	outer loop
		vertex -18.5 31.0 0.0
		vertex -18.5 29.0 12.0
		vertex -18.5 31.0 12.0
	endloop
endfacet
facet normal 0 0 0
	outer loop
		vertex -17.5 31.0 0.0
		vertex -17.5 31.0 12.0
		vertex -17.5 29.0 12.0
	endloop
endfacet
facet normal 0 0 0
	outer loop
		vertex -17.5 31.0 0.0
		vertex -17.5 29.0 12.0
		vertex -17.5 29.0 0.0
	endloop
endfacet
endsolid 
solid 
facet normal 0 0 0
	outer loop
		vertex -12.5 -31.0 0.0
		vertex -12.5 -29.0 0.0
		vertex -11.5 -31.0 0.0
	endloop
endfacet
facet normal 0 0 0
	outer loop
		vertex -12.5 -29.0 0.0
		vertex -11.5 -29.0 0.0
		vertex -11.5 -31.0 0.0
	endloop
endfacet
facet normal 0 0 0
	outer loop
		vertex -12.5 -31.0 12.0
		vertex -11.5 -31.0 12.0
		vertex -12.5 -29.0 12.0
	endloop
endfacet
facet normal 0 0 0
	outer loop
		vertex -11.5 -31.0 12.0
		vertex -11.5 -29.0 12.0
		vertex -12.5 -29.0 12.0
	endloop
endfacet
facet normal 0 0 0
	outer loop
		vertex -12.5 -31.0 0.0
		vertex -11.5 -31.0 0.0
		vertex -12.5 -31.0 12.0
	endloop
endfacet
facet normal 0 0 0
	outer loop
		vertex -11.5 -31.0 0.0
		vertex -11.5 -31.0 12.0
		vertex -12.5 -31.0 12.0
	endloop
endfacet
facet normal 0 0 0
	outer loop
		vertex -12.5 -29.0 0.0
		vertex -12.5 -29.0 12.0
		vertex -11.5 -29.0 0.0
	endloop
endfacet
facet normal 0 0 0
	outer loop
		vertex -11.5 -29.0 0.0
		vertex -12.5 -29.0 12.0
		vertex -11.5 -29.0 12.0
	endloop
endfacet
facet normal 0 0 0
	outer loop
		vertex -12.5 -31.0 0.0
		vertex -12.5 -31.0 12.0
		vertex -12.5 -29.0 0.0
	endloop
endfacet
facet normal 0 0 0
	outer loop
		vertex -12.5 -29.0 0.0
		vertex -12.5 -31.0 12.0
		vertex -12.5 -29.0 12.0
	endloop
endfacet
facet normal 0 0 0
	outer loop
		vertex -11.5 -29.0 0.0
		vertex -11.5 -29.0 12.0
		vertex -11.5 -31.0 12.0
	endloop
endfacet
facet normal 0 0 0
	outer loop
		vertex -11.5 -29.0 0.0
		vertex -11.5 -31.0 12.0
		vertex -11.5 -31.0 0.0
	endloop
endfacet
endsolid 
solid 
facet normal 0 0 0
	outer loop
		vertex -12.5 29.0 0.0
		vertex -12.5 31.0 0.0
		vertex -11.5 29.0 0.0
	endloop
endfacet
facet normal 0 0 0
	outer loop
		vertex -12.5 31.0 0.0
		vertex -11.5 31.0 0.0
		vertex -11.5 29.0 0.0
	endloop
endfacet
facet normal 0 0 0
	outer loop
		vertex -12.5 29.0 12.0
		vertex -11.5 29.0 12.0
		vertex -12.5 31.0 12.0
	endloop
endfacet
facet normal 0 0 0
	outer loop
		vertex -11.5 29.0 12.0
		vertex -11.5 31.0 12.0
		vertex -12.5 31.0 12.0
	endloop
endfacet
facet normal 0 0 0
	outer loop
		vertex -12.5 29.0 0.0
		vertex -11.5 29.0 0.0
		vertex -12.5 29.0 12.0
	endloop
endfacet
facet normal 0 0 0
	outer loop
		vertex -11.5 29.0 0.0
		vertex -11.5 29.0 12.0
		vertex -12.5 29.0 12.0
	endloop
endfacet
facet normal 0 0 0
	outer loop
		vertex -12.5 31.0 0.0
		vertex -12.5 31.0 12.0
		vertex -11.5 31.0 0.0
	endloop
endfacet
facet normal 0 0 0
	outer loop
		vertex -11.5 31.0 0.0
		vertex -12.5 31.0 12.0
		vertex -11.5 31.0 12.0
	endloop
endfacet
facet normal 0 0 0
	outer loop
		vertex -12.5 29.0 0.0
		vertex -12.5 29.0 12.0
		vertex -12.5 31.0 0.0
	endloop
endfacet
facet normal 0 0 0
	outer loop
		vertex -12.5 31.0 0.0
		vertex -12.5 29.0 12.0
		vertex -12.5 31.0 12.0
	endloop
endfacet
facet normal 0 0 0
	outer loop
		vertex -11.5 31.0 0.0
		vertex -11.5 31.0 12.0
		vertex -11.5 29.0 12.0
	endloop
endfacet
facet normal 0 0 0
	outer loop
		vertex -11.5 31.0 0.0
		vertex -11.5 29.0 12.0
		vertex -11.5 29.0 0.0
	endloop
endfacet
endsolid 
solid 
facet normal 0 0 0
	outer loop
		vertex -6.5 -31.0 0.0
		vertex -6.5 -29.0 0.0
		vertex -5.5 -31.0 0.0
	endloop
endfacet
facet normal 0 0 0
	outer loop
		vertex -6.5 -29.0 0.0
		vertex -5.5 -29.0 0.0
		vertex -5.5 -31.0 0.0
	endloop
endfacet
facet normal 0 0 0
	outer loop
		vertex -6.5 -31.0 12.0
		vertex -5.5 -31.0 12.0
		vertex -6.5 -29.0 12.0
	endloop
endfacet
facet normal 0 0 0
	outer loop
		vertex -5.5 -31.0 12.0
		vertex -5.5 -29.0 12.0
		vertex -6.5 -29.0 12.0
	endloop
endfacet
facet normal 0 0 0
	outer loop
		vertex -6.5 -31.0 0.0
		vertex -5.5 -31.0 0.0
		vertex -6.5 -31.0 12.0
	endloop
endfacet
facet normal 0 0 0
	outer loop
		vertex -5.5 -31.0 0.0
		vertex -5.5 -31.0 12.0
		vertex -6.5 -31.0 12.0
	endloop
endfacet
facet normal 0 0 0
	outer loop
		vertex -6.5 -29.0 0.0
		vertex -6.5 -29.0 12.0
		vertex -5.5 -29.0 0.0
	endloop
endfacet
facet normal 0 0 0
	outer loop
		vertex -5.5 -29.0 0.0
		vertex -6.5 -29.0 12.0
		vertex -5.5 -29.0 12.0
	endloop
endfacet
facet normal 0 0 0
	outer loop
		vertex -6.5 -31.0 0.0
		vertex -6.5 -31.0 12.0
		vertex -6.5 -29.0 0.0
	endloop
endfacet
facet normal 0 0 0
	outer loop
		vertex -6.5 -29.0 0.0
		vertex -6.5 -31.0 12.0
		vertex -6.5 -29.0 12.0
	endloop
endfacet
facet normal 0 0 0
	outer loop
		vertex -5.5 -29.0 0.0
		vertex -5.5 -29.0 12.0
		vertex -5.5 -31.0 12.0
	endloop
endfacet
facet normal 0 0 0
	outer loop
		vertex -5.5 -29.0 0.0
		vertex -5.5 -31.0 12.0
		vertex -5.5 -31.0 0.0
	endloop
endfacet
endsolid 
solid 
facet normal 0 0 0
	outer loop
		vertex -6.5 29.0 0.0
		vertex -6.5 31.0 0.0
		vertex -5.5 29.0 0.0
	endloop
endfacet
facet normal 0 0 0
	outer loop
		vertex -6.5 31.0 0.0
		vertex -5.5 31.0 0.0
		vertex -5.5 29.0 0.0
	endloop
endfacet
facet normal 0 0 0
	outer loop
		vertex -6.5 29.0 12.0
		vertex -5.5 29.0 12.0
		vertex -6.5 31.0 12.0
	endloop
endfacet
facet normal 0 0 0
	outer loop
		vertex -5.5 29.0 12.0
		vertex -5.5 31.0 12.0
		vertex -6.5 31.0 12.0
	endloop
endfacet
facet normal 0 0 0
	outer loop
		vertex -6.5 29.0 0.0
		vertex -5.5 29.0 0.0
		vertex -6.5 29.0 12.0
	endloop
endfacet
facet normal 0 0 0
	outer loop
		vertex -5.5 29.0 0.0
		vertex -5.5 29.0 12.0
		vertex -6.5 29.0 12.0
	endloop
endfacet
facet normal 0 0 0
	outer loop
		vertex -6.5 31.0 0.0
		vertex -6.5 31.0 12.0
		vertex -5.5 31.0 0.0
	endloop
endfacet
facet normal 0 0 0
	outer loop
		vertex -5.5 31.0 0.0
		vertex -6.5 31.0 12.0
		vertex -5.5 31.0 12.0
	endloop
endfacet
facet normal 0 0 0
	outer loop
		vertex -6.5 29.0 0.0
		vertex -6.5 29.0 12.0
		vertex -6.5 31.0 0.0
	endloop
endfacet
facet normal 0 0 0
	outer loop
		vertex -6.5 31.0 0.0
		vertex -6.5 29.0 12.0
		vertex -6.5 31.0 12.0
	endloop
endfacet
facet normal 0 0 0
	outer loop
		vertex -5.5 31.0 0.0
		vertex -5.5 31.0 12.0
		vertex -5.5 29.0 12.0
	endloop
endfacet
facet normal 0 0 0
	outer loop
		vertex -5.5 31.0 0.0
		vertex -5.5 29.0 12.0
		vertex -5.5 29.0 0.0
	endloop
endfacet
endsolid 
solid 
facet normal 0 0 0
	outer loop
		vertex -0.5 -31.0 0.0
		vertex -0.5 -29.0 0.0
		vertex 0.5 -31.0 0.0
	endloop
endfacet
facet normal 0 0 0
	outer loop
		vertex -0.5 -29.0 0.0
		vertex 0.5 -29.0 0.0
		vertex 0.5 -31.0 0.0
	endloop
endfacet
facet normal 0 0 0
	outer loop
		vertex -0.5 -31.0 12.0
		vertex 0.5 -31.0 12.0
		vertex -0.5 -29.0 12.0
	endloop
endfacet
facet normal 0 0 0
	outer loop
		vertex 0.5 -31.0 12.0
		vertex 0.5 -29.0 12.0
		vertex -0.5 -29.0 12.0
	endloop
endfacet
facet normal 0 0 0
	outer loop
		vertex -0.5 -31.0 0.0
		vertex 0.5 -31.0 0.0
		vertex -0.5 -31.0 12.0
	endloop
endfacet
facet normal 0 0 0
	outer loop
		vertex 0.5 -31.0 0.0
		vertex 0.5 -31.0 12.0
		vertex -0.5 -31.0 12.0
	endloop
endfacet
facet normal 0 0 0
	outer loop
		vertex -0.5 -29.0 0.0
		vertex -0.5 -29.0 12.0
		vertex 0.5 -29.0 0.0
	endloop
endfacet
facet normal 0 0 0
	outer loop
		vertex 0.5 -29.0 0.0
		vertex -0.5 -29.0 12.0
		vertex 0.5 -29.0 12.0
	endloop
endfacet
facet normal 0 0 0
	outer loop
		vertex -0.5 -31.0 0.0
		vertex -0.5 -31.0 12.0
		vertex -0.5 -29.0 0.0
	endloop
endfacet
facet normal 0 0 0
	outer loop
		vertex -0.5 -29.0 0.0
		vertex -0.5 -31.0 12.0
		vertex -0.5 -29.0 12.0
	endloop
endfacet
facet normal 0 0 0
	outer loop
		vertex 0.5 -29.0 0.0
		vertex 0.5 -29.0 12.0
		vertex 0.5 -31.0 12.0
	endloop
endfacet
facet normal 0 0 0
	outer loop
		vertex 0.5 -29.0 0.0
		vertex 0.5 -31.0 12.0
		vertex 0.5 -31.0 0.0
	endloop
endfacet
endsolid 
solid 
facet normal 0 0 0
	outer loop
		vertex -0.5 29.0 0.0
		vertex -0.5 31.0 0.0
		vertex 0.5 29.0 0.0
	endloop
endfacet
facet normal 0 0 0
	outer loop
		vertex -0.5 31.0 0.0
		vertex 0.5 31.0 0.0
		vertex 0.5 29.0 0.0
	endloop
endfacet
facet normal 0 0 0
	outer loop
		vertex -0.5 29.0 12.0
		vertex 0.5 29.0 12.0
		vertex -0.5 31.0 12.0
	endloop
endfacet
facet normal 0 0 0
	outer loop
		vertex 0.5 29.0 12.0
		vertex 0.5 31.0 12.0
		vertex -0.5 31.0 12.0
	endloop
endfacet
facet normal 0 0 0
	outer loop
		vertex -0.5 29.0 0.0
		vertex 0.5 29.0 0.0
		vertex -0.5 29.0 12.0
	endloop
endfacet
facet normal 0 0 0
	outer loop
		vertex 0.5 29.0 0.0
		vertex 0.5 29.0 12.0
		vertex -0.5 29.0 12.0
	endloop
endfacet
facet normal 0 0 0
	outer loop
		vertex -0.5 31.0 0.0
		vertex -0.5 31.0 12.0
		vertex 0.5 31.0 0.0
	endloop
endfacet
facet normal 0 0 0
	outer loop
		vertex 0.5 31.0 0.0
		vertex -0.5 31.0 12.0
		vertex 0.5 31.0 12.0
	endloop
endfacet
facet normal 0 0 0
	outer loop
		vertex -0.5 29.0 0.0
		vertex -0.5 29.0 12.0
		vertex -0.5 31.0 0.0
	endloop
endfacet
facet normal 0 0 0
	outer loop
		vertex -0.5 31.0 0.0
		vertex -0.5 29.0 12.0
		vertex -0.5 31.0 12.0
	endloop
endfacet
facet normal 0 0 0
	outer loop
		vertex 0.5 31.0 0.0
		vertex 0.5 31.0 12.0
		vertex 0.5 29.0 12.0
	endloop
endfacet
facet normal 0 0 0
	outer loop
		vertex 0.5 31.0 0.0
		vertex 0.5 29.0 12.0
		vertex 0.5 29.0 0.0
	endloop
endfacet
endsolid 
solid 
facet normal 0 0 0
	outer loop
		vertex 5.5 -31.0 0.0
		vertex 5.5 -29.0 0.0
		vertex 6.5 -31.0 0.0
	endloop
endfacet
facet normal 0 0 0
	outer loop
		vertex 5.5 -29.0 0.0
		vertex 6.5 -29.0 0.0
		vertex 6.5 -31.0 0.0
	endloop
endfacet
facet normal 0 0 0
	outer loop
		vertex 5.5 -31.0 12.0
		vertex 6.5 -31.0 12.0
		vertex 5.5 -29.0 12.0
	endloop
endfacet
facet normal 0 0 0
	outer loop
		vertex 6.5 -31.0 12.0
		vertex 6.5 -29.0 12.0
		vertex 5.5 -29.0 12.0
	endloop
endfacet
facet normal 0 0 0
	outer loop
		vertex 5.5 -31.0 0.0
		vertex 6.5 -31.0 0.0
		vertex 5.5 -31.0 12.0
	endloop
endfacet
facet normal 0 0 0
	outer loop
		vertex 6.5 -31.0 0.0
		vertex 6.5 -31.0 12.0
		vertex 5.5 -31.0 12.0
	endloop
endfacet
facet normal 0 0 0
	outer loop
		vertex 5.5 -29.0 0.0
		vertex 5.5 -29.0 12.0
		vertex 6.5 -29.0 0.0
	endloop
endfacet
facet normal 0 0 0
	outer loop
		vertex 6.5 -29.0 0.0
		vertex 5.5 -29.0 12.0
		vertex 6.5 -29.0 12.0
	endloop
endfacet
facet normal 0 0 0
	outer loop
		vertex 5.5 -31.0 0.0
		vertex 5.5 -31.0 12.0
		vertex 5.5 -29.0 0.0
	endloop
endfacet
facet normal 0 0 0
	outer loop
		vertex 5.5 -29.0 0.0
		vertex 5.5 -31.0 12.0
		vertex 5.5 -29.0 12.0
	endloop
endfacet
facet normal 0 0 0
	outer loop
		vertex 6.5 -29.0 0.0
		vertex 6.5 -29.0 12.0
		vertex 6.5 -31.0 12.0
	endloop
endfacet
facet normal 0 0 0
	outer loop
		vertex 6.5 -29.0 0.0
		vertex 6.5 -31.0 12.0
		vertex 6.5 -31.0 0.0
	endloop
endfacet
endsolid 
solid 
facet normal 0 0 0
	outer loop
		vertex 5.5 29.0 0.0
		vertex 5.5 31.0 0.0
		vertex 6.5 29.0 0.0
	endloop
endfacet
facet normal 0 0 0
	outer loop
		vertex 5.5 31.0 0.0
		vertex 6.5 31.0 0.0
		vertex 6.5 29.0 0.0
	endloop
endfacet
facet normal 0 0 0
	outer loop
		vertex 5.5 29.0 12.0
		vertex 6.5 29.0 12.0
		vertex 5.5 31.0 12.0
	endloop
endfacet
facet normal 0 0 0
	outer loop
		vertex 6.5 29.0 12.0
		vertex 6.5 31.0 12.0
		vertex 5.5 31.0 12.0
	endloop
endfacet
facet normal 0 0 0
	outer loop
		vertex 5.5 29.0 0.0
		vertex 6.5 29.0 0.0
		vertex 5.5 29.0 12.0
	endloop
endfacet
facet normal 0 0 0
	outer loop
		vertex 6.5 29.0 0.0
		vertex 6.5 29.0 12.0
		vertex 5.5 29.0 12.0
	endloop
endfacet
facet normal 0 0 0
	outer loop
		vertex 5.5 31.0 0.0
		vertex 5.5 31.0 12.0
		vertex 6.5 31.0 0.0
	endloop
endfacet
facet normal 0 0 0
	outer loop
		vertex 6.5 31.0 0.0
		vertex 5.5 31.0 12.0
		vertex 6.5 31.0 12.0
	endloop
endfacet
facet normal 0 0 0
	outer loop
		vertex 5.5 29.0 0.0
		vertex 5.5 29.0 12.0
		vertex 5.5 31.0 0.0
	endloop
endfacet
facet normal 0 0 0
	outer loop
		vertex 5.5 31.0 0.0
		vertex 5.5 29.0 12.0
		vertex 5.5 31.0 12.0
	endloop
endfacet
facet normal 0 0 0
	outer loop
		vertex 6.5 31.0 0.0
		vertex 6.5 31.0 12.0
		vertex 6.5 29.0 12.0
	endloop
endfacet
facet normal 0 0 0
	outer loop
		vertex 6.5 31.0 0.0
		vertex 6.5 29.0 12.0
		vertex 6.5 29.0 0.0
	endloop
endfacet
endsolid 
solid 
facet normal 0 0 0
	outer loop
		vertex 11.5 -31.0 0.0
		vertex 11.5 -29.0 0.0
		vertex 12.5 -31.0 0.0
	endloop
endfacet
facet normal 0 0 0
	outer loop
		vertex 11.5 -29.0 0.0
		vertex 12.5 -29.0 0.0
		vertex 12.5 -31.0 0.0
	endloop
endfacet
facet normal 0 0 0
	outer loop
		vertex 11.5 -31.0 12.0
		vertex 12.5 -31.0 12.0
		vertex 11.5 -29.0 12.0
	endloop
endfacet
facet normal 0 0 0
	outer loop
		vertex 12.5 -31.0 12.0
		vertex 12.5 -29.0 12.0
		vertex 11.5 -29.0 12.0
	endloop
endfacet
facet normal 0 0 0
	outer loop
		vertex 11.5 -31.0 0.0
		vertex 12.5 -31.0 0.0
		vertex 11.5 -31.0 12.0
	endloop
endfacet
facet normal 0 0 0
	outer loop
		vertex 12.5 -31.0 0.0
		vertex 12.5 -31.0 12.0
		vertex 11.5 -31.0 12.0
	endloop
endfacet
facet normal 0 0 0
	outer loop
		vertex 11.5 -29.0 0.0
		vertex 11.5 -29.0 12.0
		vertex 12.5 -29.0 0.0
	endloop
endfacet
facet normal 0 0 0
	outer loop
		vertex 12.5 -29.0 0.0
		vertex 11.5 -29.0 12.0
		vertex 12.5 -29.0 12.0
	endloop
endfacet
facet normal 0 0 0
	outer loop
		vertex 11.5 -31.0 0.0
		vertex 11.5 -31.0 12.0
		vertex 11.5 -29.0 0.0
	endloop
endfacet
facet normal 0 0 0
	outer loop
		vertex 11.5 -29.0 0.0
		vertex 11.5 -31.0 12.0
		vertex 11.5 -29.0 12.0
	endloop
endfacet
facet normal 0 0 0
	outer loop
		vertex 12.5 -29.0 0.0
		vertex 12.5 -29.0 12.0
		vertex 12.5 -31.0 12.0
	endloop
endfacet
facet normal 0 0 0
	outer loop
		vertex 12.5 -29.0 0.0
		vertex 12.5 -31.0 12.0
		vertex 12.5 -31.0 0.0
	endloop
endfacet
endsolid 
solid 
facet normal 0 0 0
	outer loop
		vertex 11.5 29.0 0.0
		vertex 11.5 31.0 0.0
		vertex 12.5 29.0 0.0
	endloop
endfacet
facet normal 0 0 0
	outer loop
		vertex 11.5 31.0 0.0
		vertex 12.5 31.0 0.0
		vertex 12.5 29.0 0.0
	endloop
endfacet
facet normal 0 0 0
	outer loop
		vertex 11.5 29.0 12.0
		vertex 12.5 29.0 12.0
		vertex 11.5 31.0 12.0
	endloop
endfacet
facet normal 0 0 0
	outer loop
		vertex 12.5 29.0 12.0
		vertex 12.5 31.0 12.0
		vertex 11.5 31.0 12.0
	endloop
endfacet
facet normal 0 0 0
	outer loop
		vertex 11.5 29.0 0.0
		vertex 12.5 29.0 0.0
		vertex 11.5 29.0 12.0
	endloop
endfacet
facet normal 0 0 0
	outer loop
		vertex 12.5 29.0 0.0
		vertex 12.5 29.0 12.0
		vertex 11.5 29.0 12.0
	endloop
endfacet
facet normal 0 0 0
	outer loop
		vertex 11.5 31.0 0.0
		vertex 11.5 31.0 12.0
		vertex 12.5 31.0 0.0
	endloop
endfacet
facet normal 0 0 0
	outer loop
		vertex 12.5 31.0 0.0
		vertex 11.5 31.0 12.0
		vertex 12.5 31.0 12.0
	endloop
endfacet
facet normal 0 0 0
	outer loop
		vertex 11.5 29.0 0.0
		vertex 11.5 29.0 12.0
		vertex 11.5 31.0 0.0
	endloop
endfacet
facet normal 0 0 0
	outer loop
		vertex 11.5 31.0 0.0
		vertex 11.5 29.0 12.0
		vertex 11.5 31.0 12.0
	endloop
endfacet
facet normal 0 0 0
	outer loop
		vertex 12.5 31.0 0.0
		vertex 12.5 31.0 12.0
		vertex 12.5 29.0 12.0
	endloop
endfacet
facet normal 0 0 0
	outer loop
		vertex 12.5 31.0 0.0
		vertex 12.5 29.0 12.0
		vertex 12.5 29.0 0.0
	endloop
endfacet
endsolid 
solid 
facet normal 0 0 0
	outer loop
		vertex 17.5 -31.0 0.0
		vertex 17.5 -29.0 0.0
		vertex 18.5 -31.0 0.0
	endloop
endfacet
facet normal 0 0 0
	outer loop
		vertex 17.5 -29.0 0.0
		vertex 18.5 -29.0 0.0
		vertex 18.5 -31.0 0.0
	endloop
endfacet
facet normal 0 0 0
	outer loop
		vertex 17.5 -31.0 12.0
		vertex 18.5 -31.0 12.0
		vertex 17.5 -29.0 12.0
	endloop
endfacet
facet normal 0 0 0
	outer loop
		vertex 18.5 -31.0 12.0
		vertex 18.5 -29.0 12.0
		vertex 17.5 -29.0 12.0
	endloop
endfacet
facet normal 0 0 0
	outer loop
		vertex 17.5 -31.0 0.0
		vertex 18.5 -31.0 0.0
		vertex 17.5 -31.0 12.0
	endloop
endfacet
facet normal 0 0 0
	outer loop
		vertex 18.5 -31.0 0.0
		vertex 18.5 -31.0 12.0
		vertex 17.5 -31.0 12.0
	endloop
endfacet
facet normal 0 0 0
	outer loop
		vertex 17.5 -29.0 0.0
		vertex 17.5 -29.0 12.0
		vertex 18.5 -29.0 0.0
	endloop
endfacet
facet normal 0 0 0
	outer loop
		vertex 18.5 -29.0 0.0
		vertex 17.5 -29.0 12.0
		vertex 18.5 -29.0 12.0
	endloop
endfacet
facet normal 0 0 0
	outer loop
		vertex 17.5 -31.0 0.0
		vertex 17.5 -31.0 12.0
		vertex 17.5 -29.0 0.0
	endloop
endfacet
facet normal 0 0 0
	outer loop
		vertex 17.5 -29.0 0.0
		vertex 17.5 -31.0 12.0
		vertex 17.5 -29.0 12.0
	endloop
endfacet
facet normal 0 0 0
	outer loop
		vertex 18.5 -29.0 0.0
		vertex 18.5 -29.0 12.0
		vertex 18.5 -31.0 12.0
	endloop
endfacet
facet normal 0 0 0
	outer loop
		vertex 18.5 -29.0 0.0
		vertex 18.5 -31.0 12.0
		vertex 18.5 -31.0 0.0
	endloop
endfacet
endsolid 
solid 
facet normal 0 0 0
	outer loop
		vertex 17.5 29.0 0.0
		vertex 17.5 31.0 0.0
		vertex 18.5 29.0 0.0
	endloop
endfacet
facet normal 0 0 0
	outer loop
		vertex 17.5 31.0 0.0
		vertex 18.5 31.0 0.0
		vertex 18.5 29.0 0.0
	endloop
endfacet
facet normal 0 0 0
	outer loop
		vertex 17.5 29.0 12.0
		vertex 18.5 29.0 12.0
		vertex 17.5 31.0 12.0
	endloop
endfacet
facet normal 0 0 0
	outer loop
		vertex 18.5 29.0 12.0
		vertex 18.5 31.0 12.0
		vertex 17.5 31.0 12.0
	endloop
endfacet
facet normal 0 0 0
	outer loop
		vertex 17.5 29.0 0.0
		vertex 18.5 29.0 0.0
		vertex 17.5 29.0 12.0
	endloop
endfacet
facet normal 0 0 0
	outer loop
		vertex 18.5 29.0 0.0
		vertex 18.5 29.0 12.0
		vertex 17.5 29.0 12.0
	endloop
endfacet
facet normal 0 0 0
	outer loop
		vertex 17.5 31.0 0.0
		vertex 17.5 31.0 12.0
		vertex 18.5 31.0 0.0
	endloop
endfacet
facet normal 0 0 0
	outer loop
		vertex 18.5 31.0 0.0
		vertex 17.5 31.0 12.0
		vertex 18.5 31.0 12.0
	endloop
endfacet
facet normal 0 0 0
	outer loop
		vertex 17.5 29.0 0.0
		vertex 17.5 29.0 12.0
		vertex 17.5 31.0 0.0
	endloop
endfacet
facet normal 0 0 0
	outer loop
		vertex 17.5 31.0 0.0
		vertex 17.5 29.0 12.0
		vertex 17.5 31.0 12.0
	endloop
endfacet
facet normal 0 0 0
	outer loop
		vertex 18.5 31.0 0.0
		vertex 18.5 31.0 12.0
		vertex 18.5 29.0 12.0
	endloop
endfacet
facet normal 0 0 0
	outer loop
		vertex 18.5 31.0 0.0
		vertex 18.5 29.0 12.0
		vertex 18.5 29.0 0.0
	endloop
endfacet
endsolid 
solid 
facet normal 0 0 0
	outer loop
		vertex 23.5 -31.0 0.0
		vertex 23.5 -29.0 0.0
		vertex 24.5 -31.0 0.0
	endloop
endfacet
facet normal 0 0 0
	outer loop
		vertex 23.5 -29.0 0.0
		vertex 24.5 -29.0 0.0
		vertex 24.5 -31.0 0.0
	endloop
endfacet
facet normal 0 0 0
	outer loop
		vertex 23.5 -31.0 12.0
		vertex 24.5 -31.0 12.0
		vertex 23.5 -29.0 12.0
	endloop
endfacet
facet normal 0 0 0
	outer loop
		vertex 24.5 -31.0 12.0
		vertex 24.5 -29.0 12.0
		vertex 23.5 -29.0 12.0
	endloop
endfacet
facet normal 0 0 0
	outer loop
		vertex 23.5 -31.0 0.0
		vertex 24.5 -31.0 0.0
		vertex 23.5 -31.0 12.0
	endloop
endfacet
facet normal 0 0 0
	outer loop
		vertex 24.5 -31.0 0.0
		vertex 24.5 -31.0 12.0
		vertex 23.5 -31.0 12.0
	endloop
endfacet
facet normal 0 0 0
	outer loop
		vertex 23.5 -29.0 0.0
		vertex 23.5 -29.0 12.0
		vertex 24.5 -29.0 0.0
	endloop
endfacet
facet normal 0 0 0
	outer loop
		vertex 24.5 -29.0 0.0
		vertex 23.5 -29.0 12.0
		vertex 24.5 -29.0 12.0
	endloop
endfacet
facet normal 0 0 0
	outer loop
		vertex 23.5 -31.0 0.0
		vertex 23.5 -31.0 12.0
		vertex 23.5 -29.0 0.0
	endloop
endfacet
facet normal 0 0 0
	outer loop
		vertex 23.5 -29.0 0.0
		vertex 23.5 -31.0 12.0
		vertex 23.5 -29.0 12.0
	endloop
endfacet
facet normal 0 0 0
	outer loop
		vertex 24.5 -29.0 0.0
		vertex 24.5 -29.0 12.0
		vertex 24.5 -31.0 12.0
	endloop
endfacet
facet normal 0 0 0
	outer loop
		vertex 24.5 -29.0 0.0
		vertex 24.5 -31.0 12.0
		vertex 24.5 -31.0 0.0
	endloop
endfacet
endsolid 
solid 
facet normal 0 0 0
	outer loop
		vertex 23.5 29.0 0.0
		vertex 23.5 31.0 0.0
		vertex 24.5 29.0 0.0
	endloop
endfacet
facet normal 0 0 0
	outer loop
		vertex 23.5 31.0 0.0
		vertex 24.5 31.0 0.0
		vertex 24.5 29.0 0.0
	endloop
endfacet
facet normal 0 0 0
	outer loop
		vertex 23.5 29.0 12.0
		vertex 24.5 29.0 12.0
		vertex 23.5 31.0 12.0
	endloop
endfacet
facet normal 0 0 0
	outer loop
		vertex 24.5 29.0 12.0
		vertex 24.5 31.0 12.0
		vertex 23.5 31.0 12.0
	endloop
endfacet
facet normal 0 0 0
	outer loop
		vertex 23.5 29.0 0.0
		vertex 24.5 29.0 0.0
		vertex 23.5 29.0 12.0
	endloop
endfacet
facet normal 0 0 0
	outer loop
		vertex 24.5 29.0 0.0
		vertex 24.5 29.0 12.0
		vertex 23.5 29.0 12.0
	endloop
endfacet
facet normal 0 0 0
	outer loop
		vertex 23.5 31.0 0.0
		vertex 23.5 31.0 12.0
		vertex 24.5 31.0 0.0
	endloop
endfacet
facet normal 0 0 0
	outer loop
		vertex 24.5 31.0 0.0
		vertex 23.5 31.0 12.0
		vertex 24.5 31.0 12.0
	endloop
endfacet
facet normal 0 0 0
	outer loop
		vertex 23.5 29.0 0.0
		vertex 23.5 29.0 12.0
		vertex 23.5 31.0 0.0
	endloop
endfacet
facet normal 0 0 0
	outer loop
		vertex 23.5 31.0 0.0
		vertex 23.5 29.0 12.0
		vertex 23.5 31.0 12.0
	endloop
endfacet
facet normal 0 0 0
	outer loop
		vertex 24.5 31.0 0.0
		vertex 24.5 31.0 12.0
		vertex 24.5 29.0 12.0
	endloop
endfacet
facet normal 0 0 0
	outer loop
		vertex 24.5 31.0 0.0
		vertex 24.5 29.0 12.0
		vertex 24.5 29.0 0.0
	endloop
endfacet
endsolid 
solid 
facet normal 0 0 0
	outer loop
		vertex -31.0 -24.5 0.0
		vertex -31.0 -23.5 0.0
		vertex -29.0 -24.5 0.0
	endloop
endfacet
facet normal 0 0 0
	outer loop
		vertex -31.0 -23.5 0.0
		vertex -29.0 -23.5 0.0
		vertex -29.0 -24.5 0.0
	endloop
endfacet
facet normal 0 0 0
	outer loop
		vertex -31.0 -24.5 12.0
		vertex -29.0 -24.5 12.0
		vertex -31.0 -23.5 12.0
	endloop
endfacet
facet normal 0 0 0
	outer loop
		vertex -29.0 -24.5 12.0
		vertex -29.0 -23.5 12.0
		vertex -31.0 -23.5 12.0
	endloop
endfacet
facet normal 0 0 0
	outer loop
		vertex -31.0 -24.5 0.0
		vertex -29.0 -24.5 0.0
		vertex -31.0 -24.5 12.0
	endloop
endfacet
facet normal 0 0 0
	outer loop
		vertex -29.0 -24.5 0.0
		vertex -29.0 -24.5 12.0
		vertex -31.0 -24.5 12.0
	endloop
endfacet
facet normal 0 0 0
	outer loop
		vertex -31.0 -23.5 0.0
		vertex -31.0 -23.5 12.0
		vertex -29.0 -23.5 0.0
	endloop
endfacet
facet normal 0 0 0
	outer loop
		vertex -29.0 -23.5 0.0
		vertex -31.0 -23.5 12.0
		vertex -29.0 -23.5 12.0
	endloop
endfacet
facet normal 0 0 0
	outer loop
		vertex -31.0 -24.5 0.0
		vertex -31.0 -24.5 12.0
		vertex -31.0 -23.5 0.0
	endloop
endfacet
facet normal 0 0 0
	outer loop
		vertex -31.0 -23.5 0.0
		vertex -31.0 -24.5 12.0
		vertex -31.0 -23.5 12.0
	endloop
endfacet
facet normal 0 0 0
	outer loop
		vertex -29.0 -23.5 0.0
		vertex -29.0 -23.5 12.0
		vertex -29.0 -24.5 12.0
	endloop
endfacet
facet normal 0 0 0
	outer loop
		vertex -29.0 -23.5 0.0
		vertex -29.0 -24.5 12.0
		vertex -29.0 -24.5 0.0
	endloop
endfacet
endsolid 
solid 
facet normal 0 0 0
	outer loop
		vertex 29.0 -24.5 0.0
		vertex 29.0 -23.5 0.0
		vertex 31.0 -24.5 0.0
	endloop
endfacet
facet normal 0 0 0
	outer loop
		vertex 29.0 -23.5 0.0
		vertex 31.0 -23.5 0.0
		vertex 31.0 -24.5 0.0
	endloop
endfacet
facet normal 0 0 0
	outer loop
		vertex 29.0 -24.5 12.0
		vertex 31.0 -24.5 12.0
		vertex 29.0 -23.5 12.0
	endloop
endfacet
facet normal 0 0 0
	outer loop
		vertex 31.0 -24.5 12.0
		vertex 31.0 -23.5 12.0
		vertex 29.0 -23.5 12.0
	endloop
endfacet
facet normal 0 0 0
	outer loop
		vertex 29.0 -24.5 0.0
		vertex 31.0 -24.5 0.0
		vertex 29.0 -24.5 12.0
	endloop
endfacet
facet normal 0 0 0
	outer loop
		vertex 31.0 -24.5 0.0
		vertex 31.0 -24.5 12.0
		vertex 29.0 -24.5 12.0
	endloop
endfacet
facet normal 0 0 0
	outer loop
		vertex 29.0 -23.5 0.0
		vertex 29.0 -23.5 12.0
		vertex 31.0 -23.5 0.0
	endloop
endfacet
facet normal 0 0 0
	outer loop
		vertex 31.0 -23.5 0.0
		vertex 29.0 -23.5 12.0
		vertex 31.0 -23.5 12.0
	endloop
endfacet
facet normal 0 0 0
	outer loop
		vertex 29.0 -24.5 0.0
		vertex 29.0 -24.5 12.0
		vertex 29.0 -23.5 0.0
	endloop
endfacet
facet normal 0 0 0
	outer loop
		vertex 29.0 -23.5 0.0
		vertex 29.0 -24.5 12.0
		vertex 29.0 -23.5 12.0
	endloop
endfacet
facet normal 0 0 0
	outer loop
		vertex 31.0 -23.5 0.0
		vertex 31.0 -23.5 12.0
		vertex 31.0 -24.5 12.0
	endloop
endfacet
facet normal 0 0 0
	outer loop
		vertex 31.0 -23.5 0.0
		vertex 31.0 -24.5 12.0
		vertex 31.0 -24.5 0.0
	endloop
endfacet
endsolid 
solid 
facet normal 0 0 0
	outer loop
		vertex -31.0 -18.5 0.0
		vertex -31.0 -17.5 0.0
		vertex -29.0 -18.5 0.0
	endloop
endfacet
facet normal 0 0 0
	outer loop
		vertex -31.0 -17.5 0.0
		vertex -29.0 -17.5 0.0
		vertex -29.0 -18.5 0.0
	endloop
endfacet
facet normal 0 0 0
	outer loop
		vertex -31.0 -18.5 12.0
		vertex -29.0 -18.5 12.0
		vertex -31.0 -17.5 12.0
	endloop
endfacet
facet normal 0 0 0
	outer loop
		vertex -29.0 -18.5 12.0
		vertex -29.0 -17.5 12.0
		vertex -31.0 -17.5 12.0
	endloop
endfacet
facet normal 0 0 0
	outer loop
		vertex -31.0 -18.5 0.0
		vertex -29.0 -18.5 0.0
		vertex -31.0 -18.5 12.0
	endloop
endfacet
facet normal 0 0 0
	outer loop
		vertex -29.0 -18.5 0.0
		vertex -29.0 -18.5 12.0
		vertex -31.0 -18.5 12.0
	endloop
endfacet
facet normal 0 0 0
	outer loop
		vertex -31.0 -17.5 0.0
		vertex -31.0 -17.5 12.0
		vertex -29.0 -17.5 0.0
	endloop
endfacet
facet normal 0 0 0
	outer loop
		vertex -29.0 -17.5 0.0
		vertex -31.0 -17.5 12.0
		vertex -29.0 -17.5 12.0
	endloop
endfacet
facet normal 0 0 0
	outer loop
		vertex -31.0 -18.5 0.0
		vertex -31.0 -18.5 12.0
		vertex -31.0 -17.5 0.0
	endloop
endfacet
facet normal 0 0 0
	outer loop
		vertex -31.0 -17.5 0.0
		vertex -31.0 -18.5 12.0
		vertex -31.0 -17.5 12.0
	endloop
endfacet
facet normal 0 0 0
	outer loop
		vertex -29.0 -17.5 0.0
		vertex -29.0 -17.5 12.0
		vertex -29.0 -18.5 12.0
	endloop
endfacet
facet normal 0 0 0
	outer loop
		vertex -29.0 -17.5 0.0
		vertex -29.0 -18.5 12.0
		vertex -29.0 -18.5 0.0
	endloop
endfacet
endsolid 
solid 
facet normal 0 0 0
	outer loop
		vertex 29.0 -18.5 0.0
		vertex 29.0 -17.5 0.0
		vertex 31.0 -18.5 0.0
	endloop
endfacet
facet normal 0 0 0
	outer loop
		vertex 29.0 -17.5 0.0
		vertex 31.0 -17.5 0.0
		vertex 31.0 -18.5 0.0
	endloop
endfacet
facet normal 0 0 0
	outer loop
		vertex 29.0 -18.5 12.0
		vertex 31.0 -18.5 12.0
		vertex 29.0 -17.5 12.0
	endloop
endfacet
facet normal 0 0 0
	outer loop
		vertex 31.0 -18.5 12.0
		vertex 31.0 -17.5 12.0
		vertex 29.0 -17.5 12.0
	endloop
endfacet
facet normal 0 0 0
	outer loop
		vertex 29.0 -18.5 0.0
		vertex 31.0 -18.5 0.0
		vertex 29.0 -18.5 12.0
	endloop
endfacet
facet normal 0 0 0
	outer loop
		vertex 31.0 -18.5 0.0
		vertex 31.0 -18.5 12.0
		vertex 29.0 -18.5 12.0
	endloop
endfacet
facet normal 0 0 0
	outer loop
		vertex 29.0 -17.5 0.0
		vertex 29.0 -17.5 12.0
		vertex 31.0 -17.5 0.0
	endloop
endfacet
facet normal 0 0 0
	outer loop
		vertex 31.0 -17.5 0.0
		vertex 29.0 -17.5 12.0
		vertex 31.0 -17.5 12.0
	endloop
endfacet
facet normal 0 0 0
	outer loop
		vertex 29.0 -18.5 0.0
		vertex 29.0 -18.5 12.0
		vertex 29.0 -17.5 0.0
	endloop
endfacet
facet normal 0 0 0
	outer loop
		vertex 29.0 -17.5 0.0
		vertex 29.0 -18.5 12.0
		vertex 29.0 -17.5 12.0
	endloop
endfacet
facet normal 0 0 0
	outer loop
		vertex 31.0 -17.5 0.0
		vertex 31.0 -17.5 12.0
		vertex 31.0 -18.5 12.0
	endloop
endfacet
facet normal 0 0 0
	outer loop
		vertex 31.0 -17.5 0.0
		vertex 31.0 -18.5 12.0
		vertex 31.0 -18.5 0.0
	endloop
endfacet
endsolid 
solid 
facet normal 0 0 0
	outer loop
		vertex -31.0 -12.5 0.0
		vertex -31.0 -11.5 0.0
		vertex -29.0 -12.5 0.0
	endloop
endfacet
facet normal 0 0 0
	outer loop
		vertex -31.0 -11.5 0.0
		vertex -29.0 -11.5 0.0
		vertex -29.0 -12.5 0.0
	endloop
endfacet
facet normal 0 0 0
	outer loop
		vertex -31.0 -12.5 12.0
		vertex -29.0 -12.5 12.0
		vertex -31.0 -11.5 12.0
	endloop
endfacet
facet normal 0 0 0
	outer loop
		vertex -29.0 -12.5 12.0
		vertex -29.0 -11.5 12.0
		vertex -31.0 -11.5 12.0
	endloop
endfacet
facet normal 0 0 0
	outer loop
		vertex -31.0 -12.5 0.0
		vertex -29.0 -12.5 0.0
		vertex -31.0 -12.5 12.0
	endloop
endfacet
facet normal 0 0 0
	outer loop
		vertex -29.0 -12.5 0.0
		vertex -29.0 -12.5 12.0
		vertex -31.0 -12.5 12.0
	endloop
endfacet
facet normal 0 0 0
	outer loop
		vertex -31.0 -11.5 0.0
		vertex -31.0 -11.5 12.0
		vertex -29.0 -11.5 0.0
	endloop
endfacet
facet normal 0 0 0
	outer loop
		vertex -29.0 -11.5 0.0
		vertex -31.0 -11.5 12.0
		vertex -29.0 -11.5 12.0
	endloop
endfacet
facet normal 0 0 0
	outer loop
		vertex -31.0 -12.5 0.0
		vertex -31.0 -12.5 12.0
		vertex -31.0 -11.5 0.0
	endloop
endfacet
facet normal 0 0 0
	outer loop
		vertex -31.0 -11.5 0.0
		vertex -31.0 -12.5 12.0
		vertex -31.0 -11.5 12.0
	endloop
endfacet
facet normal 0 0 0
	outer loop
		vertex -29.0 -11.5 0.0
		vertex -29.0 -11.5 12.0
		vertex -29.0 -12.5 12.0
	endloop
endfacet
facet normal 0 0 0
	outer loop
		vertex -29.0 -11.5 0.0
		vertex -29.0 -12.5 12.0
		vertex -29.0 -12.5 0.0
	endloop
endfacet
endsolid 
solid 
facet normal 0 0 0
	outer loop
		vertex 29.0 -12.5 0.0
		vertex 29.0 -11.5 0.0
		vertex 31.0 -12.5 0.0
	endloop
endfacet
facet normal 0 0 0
	outer loop
		vertex 29.0 -11.5 0.0
		vertex 31.0 -11.5 0.0
		vertex 31.0 -12.5 0.0
	endloop
endfacet
facet normal 0 0 0
	outer loop
		vertex 29.0 -12.5 12.0
		vertex 31.0 -12.5 12.0
		vertex 29.0 -11.5 12.0
	endloop
endfacet
facet normal 0 0 0
	outer loop
		vertex 31.0 -12.5 12.0
		vertex 31.0 -11.5 12.0
		vertex 29.0 -11.5 12.0
	endloop
endfacet
facet normal 0 0 0
	outer loop
		vertex 29.0 -12.5 0.0
		vertex 31.0 -12.5 0.0
		vertex 29.0 -12.5 12.0
	endloop
endfacet
facet normal 0 0 0
	outer loop
		vertex 31.0 -12.5 0.0
		vertex 31.0 -12.5 12.0
		vertex 29.0 -12.5 12.0
	endloop
endfacet
facet normal 0 0 0
	outer loop
		vertex 29.0 -11.5 0.0
		vertex 29.0 -11.5 12.0
		vertex 31.0 -11.5 0.0
	endloop
endfacet
facet normal 0 0 0
	outer loop
		vertex 31.0 -11.5 0.0
		vertex 29.0 -11.5 12.0
		vertex 31.0 -11.5 12.0
	endloop
endfacet
facet normal 0 0 0
	outer loop
		vertex 29.0 -12.5 0.0
		vertex 29.0 -12.5 12.0
		vertex 29.0 -11.5 0.0
	endloop
endfacet
facet normal 0 0 0
	outer loop
		vertex 29.0 -11.5 0.0
		vertex 29.0 -12.5 12.0
		vertex 29.0 -11.5 12.0
	endloop
endfacet
facet normal 0 0 0
	outer loop
		vertex 31.0 -11.5 0.0
		vertex 31.0 -11.5 12.0
		vertex 31.0 -12.5 12.0
	endloop
endfacet
facet normal 0 0 0
	outer loop
		vertex 31.0 -11.5 0.0
		vertex 31.0 -12.5 12.0
		vertex 31.0 -12.5 0.0
	endloop
endfacet
endsolid 
solid 
facet normal 0 0 0
	outer loop
		vertex -31.0 -6.5 0.0
		vertex -31.0 -5.5 0.0
		vertex -29.0 -6.5 0.0
	endloop
endfacet
facet normal 0 0 0
	outer loop
		vertex -31.0 -5.5 0.0
		vertex -29.0 -5.5 0.0
		vertex -29.0 -6.5 0.0
	endloop
endfacet
facet normal 0 0 0
	outer loop
		vertex -31.0 -6.5 12.0
		vertex -29.0 -6.5 12.0
		vertex -31.0 -5.5 12.0
	endloop
endfacet
facet normal 0 0 0
	outer loop
		vertex -29.0 -6.5 12.0
		vertex -29.0 -5.5 12.0
		vertex -31.0 -5.5 12.0
	endloop
endfacet
facet normal 0 0 0
	outer loop
		vertex -31.0 -6.5 0.0
		vertex -29.0 -6.5 0.0
		vertex -31.0 -6.5 12.0
	endloop
endfacet
facet normal 0 0 0
	outer loop
		vertex -29.0 -6.5 0.0
		vertex -29.0 -6.5 12.0
		vertex -31.0 -6.5 12.0
	endloop
endfacet
facet normal 0 0 0
	outer loop
		vertex -31.0 -5.5 0.0
		vertex -31.0 -5.5 12.0
		vertex -29.0 -5.5 0.0
	endloop
endfacet
facet normal 0 0 0
	outer loop
		vertex -29.0 -5.5 0.0
		vertex -31.0 -5.5 12.0
		vertex -29.0 -5.5 12.0
	endloop
endfacet
facet normal 0 0 0
	outer loop
		vertex -31.0 -6.5 0.0
		vertex -31.0 -6.5 12.0
		vertex -31.0 -5.5 0.0
	endloop
endfacet
facet normal 0 0 0
	outer loop
		vertex -31.0 -5.5 0.0
		vertex -31.0 -6.5 12.0
		vertex -31.0 -5.5 12.0
	endloop
endfacet
facet normal 0 0 0
	outer loop
		vertex -29.0 -5.5 0.0
		vertex -29.0 -5.5 12.0
		vertex -29.0 -6.5 12.0
	endloop
endfacet
facet normal 0 0 0
	outer loop
		vertex -29.0 -5.5 0.0
		vertex -29.0 -6.5 12.0
		vertex -29.0 -6.5 0.0
	endloop
endfacet
endsolid 
solid 
facet normal 0 0 0
	outer loop
		vertex 29.0 -6.5 0.0
		vertex 29.0 -5.5 0.0
		vertex 31.0 -6.5 0.0
	endloop
endfacet
facet normal 0 0 0
	outer loop
		vertex 29.0 -5.5 0.0
		vertex 31.0 -5.5 0.0
		vertex 31.0 -6.5 0.0
	endloop
endfacet
facet normal 0 0 0
	outer loop
		vertex 29.0 -6.5 12.0
		vertex 31.0 -6.5 12.0
		vertex 29.0 -5.5 12.0
	endloop
endfacet
facet normal 0 0 0
	outer loop
		vertex 31.0 -6.5 12.0
		vertex 31.0 -5.5 12.0
		vertex 29.0 -5.5 12.0
	endloop
endfacet
facet normal 0 0 0
	outer loop
		vertex 29.0 -6.5 0.0
		vertex 31.0 -6.5 0.0
		vertex 29.0 -6.5 12.0
	endloop
endfacet
facet normal 0 0 0
	outer loop
		vertex 31.0 -6.5 0.0
		vertex 31.0 -6.5 12.0
		vertex 29.0 -6.5 12.0
	endloop
endfacet
facet normal 0 0 0
	outer loop
		vertex 29.0 -5.5 0.0
		vertex 29.0 -5.5 12.0
		vertex 31.0 -5.5 0.0
	endloop
endfacet
facet normal 0 0 0
	outer loop
		vertex 31.0 -5.5 0.0
		vertex 29.0 -5.5 12.0
		vertex 31.0 -5.5 12.0
	endloop
endfacet
facet normal 0 0 0
	outer loop
		vertex 29.0 -6.5 0.0
		vertex 29.0 -6.5 12.0
		vertex 29.0 -5.5 0.0
	endloop
endfacet
facet normal 0 0 0
	outer loop
		vertex 29.0 -5.5 0.0
		vertex 29.0 -6.5 12.0
		vertex 29.0 -5.5 12.0
	endloop
endfacet
facet normal 0 0 0
	outer loop
		vertex 31.0 -5.5 0.0
		vertex 31.0 -5.5 12.0
		vertex 31.0 -6.5 12.0
	endloop
endfacet
facet normal 0 0 0
	outer loop
		vertex 31.0 -5.5 0.0
		vertex 31.0 -6.5 12.0
		vertex 31.0 -6.5 0.0
	endloop
endfacet
endsolid 
solid 
facet normal 0 0 0
	outer loop
		vertex -31.0 -0.5 0.0
		vertex -31.0 0.5 0.0
		vertex -29.0 -0.5 0.0
	endloop
endfacet
facet normal 0 0 0
	outer loop
		vertex -31.0 0.5 0.0
		vertex -29.0 0.5 0.0
		vertex -29.0 -0.5 0.0
	endloop
endfacet
facet normal 0 0 0
	outer loop
		vertex -31.0 -0.5 12.0
		vertex -29.0 -0.5 12.0
		vertex -31.0 0.5 12.0
	endloop
endfacet
facet normal 0 0 0
	outer loop
		vertex -29.0 -0.5 12.0
		vertex -29.0 0.5 12.0
		vertex -31.0 0.5 12.0
	endloop
endfacet
facet normal 0 0 0
	outer loop
		vertex -31.0 -0.5 0.0
		vertex -29.0 -0.5 0.0
		vertex -31.0 -0.5 12.0
	endloop
endfacet
facet normal 0 0 0
	outer loop
		vertex -29.0 -0.5 0.0
		vertex -29.0 -0.5 12.0
		vertex -31.0 -0.5 12.0
	endloop
endfacet
facet normal 0 0 0
	outer loop
		vertex -31.0 0.5 0.0
		vertex -31.0 0.5 12.0
		vertex -29.0 0.5 0.0
	endloop
endfacet
facet normal 0 0 0
	outer loop
		vertex -29.0 0.5 0.0
		vertex -31.0 0.5 12.0
		vertex -29.0 0.5 12.0
	endloop
endfacet
facet normal 0 0 0
	outer loop
		vertex -31.0 -0.5 0.0
		vertex -31.0 -0.5 12.0
		vertex -31.0 0.5 0.0
	endloop
endfacet
facet normal 0 0 0
	outer loop
		vertex -31.0 0.5 0.0
		vertex -31.0 -0.5 12.0
		vertex -31.0 0.5 12.0
	endloop
endfacet
facet normal 0 0 0
	outer loop
		vertex -29.0 0.5 0.0
		vertex -29.0 0.5 12.0
		vertex -29.0 -0.5 12.0
	endloop
endfacet
facet normal 0 0 0
	outer loop
		vertex -29.0 0.5 0.0
		vertex -29.0 -0.5 12.0
		vertex -29.0 -0.5 0.0
	endloop
endfacet
endsolid 
solid 
facet normal 0 0 0
	outer loop
		vertex 29.0 -0.5 0.0
		vertex 29.0 0.5 0.0
		vertex 31.0 -0.5 0.0
	endloop
endfacet
facet normal 0 0 0
	outer loop
		vertex 29.0 0.5 0.0
		vertex 31.0 0.5 0.0
		vertex 31.0 -0.5 0.0
	endloop
endfacet
facet normal 0 0 0
	outer loop
		vertex 29.0 -0.5 12.0
		vertex 31.0 -0.5 12.0
		vertex 29.0 0.5 12.0
	endloop
endfacet
facet normal 0 0 0
	outer loop
		vertex 31.0 -0.5 12.0
		vertex 31.0 0.5 12.0
		vertex 29.0 0.5 12.0
	endloop
endfacet
facet normal 0 0 0
	outer loop
		vertex 29.0 -0.5 0.0
		vertex 31.0 -0.5 0.0
		vertex 29.0 -0.5 12.0
	endloop
endfacet
facet normal 0 0 0
	outer loop
		vertex 31.0 -0.5 0.0
		vertex 31.0 -0.5 12.0
		vertex 29.0 -0.5 12.0
	endloop
endfacet
facet normal 0 0 0
	outer loop
		vertex 29.0 0.5 0.0
		vertex 29.0 0.5 12.0
		vertex 31.0 0.5 0.0
	endloop
endfacet
facet normal 0 0 0
	outer loop
		vertex 31.0 0.5 0.0
		vertex 29.0 0.5 12.0
		vertex 31.0 0.5 12.0
	endloop
endfacet
facet normal 0 0 0
	outer loop
		vertex 29.0 -0.5 0.0
		vertex 29.0 -0.5 12.0
		vertex 29.0 0.5 0.0
	endloop
endfacet
facet normal 0 0 0
	outer loop
		vertex 29.0 0.5 0.0
		vertex 29.0 -0.5 12.0
		vertex 29.0 0.5 12.0
	endloop
endfacet
facet normal 0 0 0
	outer loop
		vertex 31.0 0.5 0.0
		vertex 31.0 0.5 12.0
		vertex 31.0 -0.5 12.0
	endloop
endfacet
facet normal 0 0 0
	outer loop
		vertex 31.0 0.5 0.0
		vertex 31.0 -0.5 12.0
		vertex 31.0 -0.5 0.0
	endloop
endfacet
endsolid 
solid 
facet normal 0 0 0
	outer loop
		vertex -31.0 5.5 0.0
		vertex -31.0 6.5 0.0
		vertex -29.0 5.5 0.0
	endloop
endfacet
facet normal 0 0 0
	outer loop
		vertex -31.0 6.5 0.0
		vertex -29.0 6.5 0.0
		vertex -29.0 5.5 0.0
	endloop
endfacet
facet normal 0 0 0
	outer loop
		vertex -31.0 5.5 12.0
		vertex -29.0 5.5 12.0
		vertex -31.0 6.5 12.0
	endloop
endfacet
facet normal 0 0 0
	outer loop
		vertex -29.0 5.5 12.0
		vertex -29.0 6.5 12.0
		vertex -31.0 6.5 12.0
	endloop
endfacet
facet normal 0 0 0
	outer loop
		vertex -31.0 5.5 0.0
		vertex -29.0 5.5 0.0
		vertex -31.0 5.5 12.0
	endloop
endfacet
facet normal 0 0 0
	outer loop
		vertex -29.0 5.5 0.0
		vertex -29.0 5.5 12.0
		vertex -31.0 5.5 12.0
	endloop
endfacet
facet normal 0 0 0
	outer loop
		vertex -31.0 6.5 0.0
		vertex -31.0 6.5 12.0
		vertex -29.0 6.5 0.0
	endloop
endfacet
facet normal 0 0 0
	outer loop
		vertex -29.0 6.5 0.0
		vertex -31.0 6.5 12.0
		vertex -29.0 6.5 12.0
	endloop
endfacet
facet normal 0 0 0
	outer loop
		vertex -31.0 5.5 0.0
		vertex -31.0 5.5 12.0
		vertex -31.0 6.5 0.0
	endloop
endfacet
facet normal 0 0 0
	outer loop
		vertex -31.0 6.5 0.0
		vertex -31.0 5.5 12.0
		vertex -31.0 6.5 12.0
	endloop
endfacet
facet normal 0 0 0
	outer loop
		vertex -29.0 6.5 0.0
		vertex -29.0 6.5 12.0
		vertex -29.0 5.5 12.0
	endloop
endfacet
facet normal 0 0 0
	outer loop
		vertex -29.0 6.5 0.0
		vertex -29.0 5.5 12.0
		vertex -29.0 5.5 0.0
	endloop
endfacet
endsolid 
solid 
facet normal 0 0 0
	outer loop
		vertex 29.0 5.5 0.0
		vertex 29.0 6.5 0.0
		vertex 31.0 5.5 0.0
	endloop
endfacet
facet normal 0 0 0
	outer loop
		vertex 29.0 6.5 0.0
		vertex 31.0 6.5 0.0
		vertex 31.0 5.5 0.0
	endloop
endfacet
facet normal 0 0 0
	outer loop
		vertex 29.0 5.5 12.0
		vertex 31.0 5.5 12.0
		vertex 29.0 6.5 12.0
	endloop
endfacet
facet normal 0 0 0
	outer loop
		vertex 31.0 5.5 12.0
		vertex 31.0 6.5 12.0
		vertex 29.0 6.5 12.0
	endloop
endfacet
facet normal 0 0 0
	outer loop
		vertex 29.0 5.5 0.0
		vertex 31.0 5.5 0.0
		vertex 29.0 5.5 12.0
	endloop
endfacet
facet normal 0 0 0
	outer loop
		vertex 31.0 5.5 0.0
		vertex 31.0 5.5 12.0
		vertex 29.0 5.5 12.0
	endloop
endfacet
facet normal 0 0 0
	outer loop
		vertex 29.0 6.5 0.0
		vertex 29.0 6.5 12.0
		vertex 31.0 6.5 0.0
	endloop
endfacet
facet normal 0 0 0
	outer loop
		vertex 31.0 6.5 0.0
		vertex 29.0 6.5 12.0
		vertex 31.0 6.5 12.0
	endloop
endfacet
facet normal 0 0 0
	outer loop
		vertex 29.0 5.5 0.0
		vertex 29.0 5.5 12.0
		vertex 29.0 6.5 0.0
	endloop
endfacet
facet normal 0 0 0
	outer loop
		vertex 29.0 6.5 0.0
		vertex 29.0 5.5 12.0
		vertex 29.0 6.5 12.0
	endloop
endfacet
facet normal 0 0 0
	outer loop
		vertex 31.0 6.5 0.0
		vertex 31.0 6.5 12.0
		vertex 31.0 5.5 12.0
	endloop
endfacet
facet normal 0 0 0
	outer loop
		vertex 31.0 6.5 0.0
		vertex 31.0 5.5 12.0
		vertex 31.0 5.5 0.0
	endloop
endfacet
endsolid 
solid 
facet normal 0 0 0
	outer loop
		vertex -31.0 11.5 0.0
		vertex -31.0 12.5 0.0
		vertex -29.0 11.5 0.0
	endloop
endfacet
facet normal 0 0 0
	outer loop
		vertex -31.0 12.5 0.0
		vertex -29.0 12.5 0.0
		vertex -29.0 11.5 0.0
	endloop
endfacet
facet normal 0 0 0
	outer loop
		vertex -31.0 11.5 12.0
		vertex -29.0 11.5 12.0
		vertex -31.0 12.5 12.0
	endloop
endfacet
facet normal 0 0 0
	outer loop
		vertex -29.0 11.5 12.0
		vertex -29.0 12.5 12.0
		vertex -31.0 12.5 12.0
	endloop
endfacet
facet normal 0 0 0
	outer loop
		vertex -31.0 11.5 0.0
		vertex -29.0 11.5 0.0
		vertex -31.0 11.5 12.0
	endloop
endfacet
facet normal 0 0 0
	outer loop
		vertex -29.0 11.5 0.0
		vertex -29.0 11.5 12.0
		vertex -31.0 11.5 12.0
	endloop
endfacet
facet normal 0 0 0
	outer loop
		vertex -31.0 12.5 0.0
		vertex -31.0 12.5 12.0
		vertex -29.0 12.5 0.0
	endloop
endfacet
facet normal 0 0 0
	outer loop
		vertex -29.0 12.5 0.0
		vertex -31.0 12.5 12.0
		vertex -29.0 12.5 12.0
	endloop
endfacet
facet normal 0 0 0
	outer loop
		vertex -31.0 11.5 0.0
		vertex -31.0 11.5 12.0
		vertex -31.0 12.5 0.0
	endloop
endfacet
facet normal 0 0 0
	outer loop
		vertex -31.0 12.5 0.0
		vertex -31.0 11.5 12.0
		vertex -31.0 12.5 12.0
	endloop
endfacet
facet normal 0 0 0
	outer loop
		vertex -29.0 12.5 0.0
		vertex -29.0 12.5 12.0
		vertex -29.0 11.5 12.0
	endloop
endfacet
facet normal 0 0 0
	outer loop
		vertex -29.0 12.5 0.0
		vertex -29.0 11.5 12.0
		vertex -29.0 11.5 0.0
	endloop
endfacet
endsolid 
solid 
facet normal 0 0 0
	outer loop
		vertex 29.0 11.5 0.0
		vertex 29.0 12.5 0.0
		vertex 31.0 11.5 0.0
	endloop
endfacet
facet normal 0 0 0
	outer loop
		vertex 29.0 12.5 0.0
		vertex 31.0 12.5 0.0
		vertex 31.0 11.5 0.0
	endloop
endfacet
facet normal 0 0 0
	outer loop
		vertex 29.0 11.5 12.0
		vertex 31.0 11.5 12.0
		vertex 29.0 12.5 12.0
	endloop
endfacet
facet normal 0 0 0
	outer loop
		vertex 31.0 11.5 12.0
		vertex 31.0 12.5 12.0
		vertex 29.0 12.5 12.0
	endloop
endfacet
facet normal 0 0 0
	outer loop
		vertex 29.0 11.5 0.0
		vertex 31.0 11.5 0.0
		vertex 29.0 11.5 12.0
	endloop
endfacet
facet normal 0 0 0
	outer loop
		vertex 31.0 11.5 0.0
		vertex 31.0 11.5 12.0
		vertex 29.0 11.5 12.0
	endloop
endfacet
facet normal 0 0 0
	outer loop
		vertex 29.0 12.5 0.0
		vertex 29.0 12.5 12.0
		vertex 31.0 12.5 0.0
	endloop
endfacet
facet normal 0 0 0
	outer loop
		vertex 31.0 12.5 0.0
		vertex 29.0 12.5 12.0
		vertex 31.0 12.5 12.0
	endloop
endfacet
facet normal 0 0 0
	outer loop
		vertex 29.0 11.5 0.0
		vertex 29.0 11.5 12.0
		vertex 29.0 12.5 0.0
	endloop
endfacet
facet normal 0 0 0
	outer loop
		vertex 29.0 12.5 0.0
		vertex 29.0 11.5 12.0
		vertex 29.0 12.5 12.0
	endloop
endfacet
facet normal 0 0 0
	outer loop
		vertex 31.0 12.5 0.0
		vertex 31.0 12.5 12.0
		vertex 31.0 11.5 12.0
	endloop
endfacet
facet normal 0 0 0
	outer loop
		vertex 31.0 12.5 0.0
		vertex 31.0 11.5 12.0
		vertex 31.0 11.5 0.0
	endloop
endfacet
endsolid 
solid 
facet normal 0 0 0
	outer loop
		vertex -31.0 17.5 0.0
		vertex -31.0 18.5 0.0
		vertex -29.0 17.5 0.0
	endloop
endfacet
facet normal 0 0 0
	outer loop
		vertex -31.0 18.5 0.0
		vertex -29.0 18.5 0.0
		vertex -29.0 17.5 0.0
	endloop
endfacet
facet normal 0 0 0
	outer loop
		vertex -31.0 17.5 12.0
		vertex -29.0 17.5 12.0
		vertex -31.0 18.5 12.0
	endloop
endfacet
facet normal 0 0 0
	outer loop
		vertex -29.0 17.5 12.0
		vertex -29.0 18.5 12.0
		vertex -31.0 18.5 12.0
	endloop
endfacet
facet normal 0 0 0
	outer loop
		vertex -31.0 17.5 0.0
		vertex -29.0 17.5 0.0
		vertex -31.0 17.5 12.0
	endloop
endfacet
facet normal 0 0 0
	outer loop
		vertex -29.0 17.5 0.0
		vertex -29.0 17.5 12.0
		vertex -31.0 17.5 12.0
	endloop
endfacet
facet normal 0 0 0
	outer loop
		vertex -31.0 18.5 0.0
		vertex -31.0 18.5 12.0
		vertex -29.0 18.5 0.0
	endloop
endfacet
facet normal 0 0 0
	outer loop
		vertex -29.0 18.5 0.0
		vertex -31.0 18.5 12.0
		vertex -29.0 18.5 12.0
	endloop
endfacet
facet normal 0 0 0
	outer loop
		vertex -31.0 17.5 0.0
		vertex -31.0 17.5 12.0
		vertex -31.0 18.5 0.0
	endloop
endfacet
facet normal 0 0 0
	outer loop
		vertex -31.0 18.5 0.0
		vertex -31.0 17.5 12.0
		vertex -31.0 18.5 12.0
	endloop
endfacet
facet normal 0 0 0
	outer loop
		vertex -29.0 18.5 0.0
		vertex -29.0 18.5 12.0
		vertex -29.0 17.5 12.0
	endloop
endfacet
facet normal 0 0 0
	outer loop
		vertex -29.0 18.5 0.0
		vertex -29.0 17.5 12.0
		vertex -29.0 17.5 0.0
	endloop
endfacet
endsolid 
solid 
facet normal 0 0 0
	outer loop
		vertex 29.0 17.5 0.0
		vertex 29.0 18.5 0.0
		vertex 31.0 17.5 0.0
	endloop
endfacet
facet normal 0 0 0
	outer loop
		vertex 29.0 18.5 0.0
		vertex 31.0 18.5 0.0
		vertex 31.0 17.5 0.0
	endloop
endfacet
facet normal 0 0 0
	outer loop
		vertex 29.0 17.5 12.0
		vertex 31.0 17.5 12.0
		vertex 29.0 18.5 12.0
	endloop
endfacet
facet normal 0 0 0
	outer loop
		vertex 31.0 17.5 12.0
		vertex 31.0 18.5 12.0
		vertex 29.0 18.5 12.0
	endloop
endfacet
facet normal 0 0 0
	outer loop
		vertex 29.0 17.5 0.0
		vertex 31.0 17.5 0.0
		vertex 29.0 17.5 12.0
	endloop
endfacet
facet normal 0 0 0
	outer loop
		vertex 31.0 17.5 0.0
		vertex 31.0 17.5 12.0
		vertex 29.0 17.5 12.0
	endloop
endfacet
facet normal 0 0 0
	outer loop
		vertex 29.0 18.5 0.0
		vertex 29.0 18.5 12.0
		vertex 31.0 18.5 0.0
	endloop
endfacet
facet normal 0 0 0
	outer loop
		vertex 31.0 18.5 0.0
		vertex 29.0 18.5 12.0
		vertex 31.0 18.5 12.0
	endloop
endfacet
facet normal 0 0 0
	outer loop
		vertex 29.0 17.5 0.0
		vertex 29.0 17.5 12.0
		vertex 29.0 18.5 0.0
	endloop
endfacet
facet normal 0 0 0
	outer loop
		vertex 29.0 18.5 0.0
		vertex 29.0 17.5 12.0
		vertex 29.0 18.5 12.0
	endloop
endfacet
facet normal 0 0 0
	outer loop
		vertex 31.0 18.5 0.0
		vertex 31.0 18.5 12.0
		vertex 31.0 17.5 12.0
	endloop
endfacet
facet normal 0 0 0
	outer loop
		vertex 31.0 18.5 0.0
		vertex 31.0 17.5 12.0
		vertex 31.0 17.5 0.0
	endloop
endfacet
endsolid 
solid 
facet normal 0 0 0
	outer loop
		vertex -31.0 23.5 0.0
		vertex -31.0 24.5 0.0
		vertex -29.0 23.5 0.0
	endloop
endfacet
facet normal 0 0 0
	outer loop
		vertex -31.0 24.5 0.0
		vertex -29.0 24.5 0.0
		vertex -29.0 23.5 0.0
	endloop
endfacet
facet normal 0 0 0
	outer loop
		vertex -31.0 23.5 12.0
		vertex -29.0 23.5 12.0
		vertex -31.0 24.5 12.0
	endloop
endfacet
facet normal 0 0 0
	outer loop
		vertex -29.0 23.5 12.0
		vertex -29.0 24.5 12.0
		vertex -31.0 24.5 12.0
	endloop
endfacet
facet normal 0 0 0
	outer loop
		vertex -31.0 23.5 0.0
		vertex -29.0 23.5 0.0
		vertex -31.0 23.5 12.0
	endloop
endfacet
facet normal 0 0 0
	outer loop
		vertex -29.0 23.5 0.0
		vertex -29.0 23.5 12.0
		vertex -31.0 23.5 12.0
	endloop
endfacet
facet normal 0 0 0
	outer loop
		vertex -31.0 24.5 0.0
		vertex -31.0 24.5 12.0
		vertex -29.0 24.5 0.0
	endloop
endfacet
facet normal 0 0 0
	outer loop
		vertex -29.0 24.5 0.0
		vertex -31.0 24.5 12.0
		vertex -29.0 24.5 12.0
	endloop
endfacet
facet normal 0 0 0
	outer loop
		vertex -31.0 23.5 0.0
		vertex -31.0 23.5 12.0
		vertex -31.0 24.5 0.0
	endloop
endfacet
facet normal 0 0 0
	outer loop
		vertex -31.0 24.5 0.0
		vertex -31.0 23.5 12.0
		vertex -31.0 24.5 12.0
	endloop
endfacet
facet normal 0 0 0
	outer loop
		vertex -29.0 24.5 0.0
		vertex -29.0 24.5 12.0
		vertex -29.0 23.5 12.0
	endloop
endfacet
facet normal 0 0 0
	outer loop
		vertex -29.0 24.5 0.0
		vertex -29.0 23.5 12.0
		vertex -29.0 23.5 0.0
	endloop
endfacet
endsolid 
solid 
facet normal 0 0 0
	outer loop
		vertex 29.0 23.5 0.0
		vertex 29.0 24.5 0.0
		vertex 31.0 23.5 0.0
	endloop
endfacet
facet normal 0 0 0
	outer loop
		vertex 29.0 24.5 0.0
		vertex 31.0 24.5 0.0
		vertex 31.0 23.5 0.0
	endloop
endfacet
facet normal 0 0 0
	outer loop
		vertex 29.0 23.5 12.0
		vertex 31.0 23.5 12.0
		vertex 29.0 24.5 12.0
	endloop
endfacet
facet normal 0 0 0
	outer loop
		vertex 31.0 23.5 12.0
		vertex 31.0 24.5 12.0
		vertex 29.0 24.5 12.0
	endloop
endfacet
facet normal 0 0 0
	outer loop
		vertex 29.0 23.5 0.0
		vertex 31.0 23.5 0.0
		vertex 29.0 23.5 12.0
	endloop
endfacet
facet normal 0 0 0
	outer loop
		vertex 31.0 23.5 0.0
		vertex 31.0 23.5 12.0
		vertex 29.0 23.5 12.0
	endloop
endfacet
facet normal 0 0 0
	outer loop
		vertex 29.0 24.5 0.0
		vertex 29.0 24.5 12.0
		vertex 31.0 24.5 0.0
	endloop
endfacet
facet normal 0 0 0
	outer loop
		vertex 31.0 24.5 0.0
		vertex 29.0 24.5 12.0
		vertex 31.0 24.5 12.0
	endloop
endfacet
facet normal 0 0 0
	outer loop
		vertex 29.0 23.5 0.0
		vertex 29.0 23.5 12.0
		vertex 29.0 24.5 0.0
	endloop
endfacet
facet normal 0 0 0
	outer loop
		vertex 29.0 24.5 0.0
		vertex 29.0 23.5 12.0
		vertex 29.0 24.5 12.0
	endloop
endfacet
facet normal 0 0 0
	outer loop
		vertex 31.0 24.5 0.0
		vertex 31.0 24.5 12.0
		vertex 31.0 23.5 12.0
	endloop
endfacet
facet normal 0 0 0
	outer loop
		vertex 31.0 24.5 0.0
		vertex 31.0 23.5 12.0
		vertex 31.0 23.5 0.0
	endloop
endfacet
endsolid 
solid 
facet normal 0 0 0
	outer loop
		vertex 0.0 0.0 15.0
		vertex -10.0 -10.0 13.0
		vertex 10.0 -10.0 13.0
	endloop
endfacet
facet normal 0 0 0
	outer loop
		vertex 0.0 0.0 15.0
		vertex 10.0 -10.0 13.0
		vertex 10.0 10.0 13.0
	endloop
endfacet
facet normal 0 0 0
	outer loop
		vertex 0.0 0.0 15.0
		vertex 10.0 10.0 13.0
		vertex -10.0 10.0 13.0
	endloop
endfacet
facet normal 0 0 0
	outer loop
		vertex 0.0 0.0 15.0
		vertex -10.0 10.0 13.0
		vertex -10.0 -10.0 13.0
	endloop
endfacet
facet normal 0 0 0
	outer loop
		vertex -10.0 -10.0 13.0
		vertex -10.0 10.0 13.0
		vertex 10.0 10.0 13.0
	endloop
endfacet
facet normal 0 0 0
	outer loop
		vertex -10.0 -10.0 13.0
		vertex 10.0 10.0 13.0
		vertex 10.0 -10.0 13.0
	endloop
endfacet
endsolid 
